<?xml version="1.0" encoding="UTF-8"?>
<svg width="32px" height="32px" viewBox="0 0 32 32" version="1.1" xmlns="http://www.w3.org/2000/svg" xmlns:xlink="http://www.w3.org/1999/xlink">
    <!-- Generator: Sketch 61 (89581) - https://sketch.com -->
    <title>reset</title>
    <desc>Created with Sketch.</desc>
    <g id="reset" stroke="none" stroke-width="1" fill="none" fill-rule="evenodd">
        <g>
            <circle id="Oval" stroke="#000000" stroke-width="2" fill="#FFFFFF" cx="16" cy="16" r="15"></circle>
            <path d="M22.5359116,9.46408837 L22.5359116,9.46408837 C23.1546961,10.0828729 23.1546961,11.2430939 22.5359116,11.8618784 L11.8618785,22.5359116 C11.2430939,23.1546961 10.0828729,23.1546961 9.4640884,22.5359116 L9.4640884,22.5359116 C8.84530387,21.9171271 8.84530387,20.7569061 9.4640884,20.1381215 L20.1381216,9.46408837 C20.8342541,8.84530384 21.9171271,8.84530384 22.5359116,9.46408837 Z" id="Path" fill="#E30613" fill-rule="nonzero"></path>
            <path d="M22.5359116,9.4640884 L22.5359116,9.4640884 C23.1546961,10.0828729 23.1546961,11.2430939 22.5359116,11.8618785 L11.8618784,22.5359116 C11.2430939,23.1546961 10.0828729,23.1546961 9.46408837,22.5359116 L9.46408837,22.5359116 C8.84530384,21.9171271 8.84530384,20.7569061 9.46408837,20.1381216 L20.1381215,9.4640884 C20.8342541,8.84530387 21.9171271,8.84530387 22.5359116,9.4640884 Z" id="Path" fill="#E30613" fill-rule="nonzero" transform="translate(16.000000, 16.000000) rotate(-90.000000) translate(-16.000000, -16.000000) "></path>
        </g>
    </g>
</svg>