<?xml version="1.0" encoding="UTF-8"?>
<svg width="218px" height="218px" viewBox="0 0 218 218" version="1.1" xmlns="http://www.w3.org/2000/svg" xmlns:xlink="http://www.w3.org/1999/xlink">
    <title>icone Cadeau xmas</title>
    <g id="Page-1" stroke="none" stroke-width="1" fill="none" fill-rule="evenodd">
        <g id="icone-Cadeau-xmas" fill-rule="nonzero">
            <g id="Group" fill="#01273A">
                <circle id="Oval" cx="108.9" cy="109" r="108.7"></circle>
            </g>
            <circle id="Oval" fill="#BBE9FC" cx="108.4" cy="22.5" r="1.9"></circle>
            <circle id="Oval" fill="#FFFFFF" cx="188.2" cy="103.8" r="1.9"></circle>
            <circle id="Oval" fill="#FFFFFF" cx="189.4" cy="66.5" r="1.9"></circle>
            <circle id="Oval" fill="#7CD2ED" cx="47.6" cy="170.8" r="1.9"></circle>
            <circle id="Oval" fill="#FFFFFF" cx="25.4" cy="127.3" r="1.9"></circle>
            <circle id="Oval" fill="#FFFFFF" cx="149.3" cy="58.8" r="3"></circle>
            <circle id="Oval" fill="#FFFFFF" cx="42.5" cy="80" r="3"></circle>
            <circle id="Oval" fill="#7CD2ED" cx="125.7" cy="125.1" r="1.9"></circle>
            <circle id="Oval" fill="#FFFFFF" cx="155.3" cy="178.5" r="1.9"></circle>
            <path d="M79,22.9 C79,22.9 27.7,49.8 44,60.3 C57.3,68.8 55.8,40.4 79,22.9 Z" id="Path" fill="#FFFFFF"></path>
            <path d="M18.8,164.5 C18.8,164.5 55.4,131.8 103.5,131.8 C167.7,131.8 199,160.3 199,160.3 C199,160.3 184.5,207.5 115.6,214.1 C46.7,220.7 18.8,164.5 18.8,164.5 Z" id="Path" fill="#095A7A"></path>
            <path d="M151.3,176 C153.3,187.8 125.8,198.6 113.1,200.8 C100.3,203 71.7,192.9 69.7,181 C67.7,169.2 93.2,169.2 106,167 C118.8,164.8 149.3,164.1 151.3,176 Z" id="Path" fill="#000000"></path>
            <g id="Group" transform="translate(51.000000, 29.000000)">
                <path d="M114.1,135.4 L51.1,147.7 C46.7,148.6 42.6,145.2 42.6,140.7 L36.4,75 C36.4,71.6 38.8,68.7 42.1,68 L111.3,55.7 C115.7,54.8 119.8,58.2 119.8,62.7 L119.8,128.4 C119.8,131.8 117.4,134.8 114.1,135.4 Z" id="Path" fill="#FCB1B1"></path>
                <polygon id="Path" fill="#FF0000" points="42.5 114.5 42.5 103.8 119.9 88.6 119.9 99.4"></polygon>
                <polygon id="Path" fill="#FF0000" points="88.7 140.5 77.1 143 77.1 62.4 89.2 60.1"></polygon>
                <path d="M36.6,146.2 L4.5,129.1 C3.1,128.4 2.3,126.9 2.3,125.4 L2.3,54.7 C5.9,46.7 10,43.7 8.5,51 L40.6,68.1 C42,68.8 42.8,70.3 42.8,71.8 L42.8,142.5 C42.7,145.7 59.8,150.2 36.6,146.2 Z" id="Path" fill="#FCCDCD"></path>
                <polygon id="Path" fill="#FC6060" points="2 93.1 2 82.3 42.7 103.7 42.7 114.4"></polygon>
                <polygon id="Path" fill="#FC6060" points="26.4 140.9 17.4 136.2 17.4 55.8 27 60.6"></polygon>
                <path d="M43.7,69.1 L111.4,55.7 C116.7,54.6 117.7,56.2 116.1,53.4 C115.5,52.4 114.1,51.3 112.2,50.4 L76.6,32.4 C76,32.1 75.4,32 74.7,32.2 L9.8,46.2 C7.2,46.8 3.3,48.9 9.1,51.5 L41.8,68.9 C42.4,69.1 43.1,69.2 43.7,69.1 Z" id="Path" fill="#FCE3E3"></path>
                <polygon id="Path" fill="#FC7E7E" points="17.4 55.8 90.8 39.5 99.3 43.9 27 61"></polygon>
                <polygon id="Path" fill="#FC7E7E" points="77.1 62.4 37.3 40 46 38.1 89.2 60.1"></polygon>
                <path d="M119.8,62.7 C119.8,62.7 118.3,55.4 114.6,51.9 C110.9,48.4 106,56.2 106,56.2 C106,56.2 114.4,54.7 117.2,57.3 C120.1,59.9 119.8,62.7 119.8,62.7 Z" id="Path" fill="#FCE3E3"></path>
                <path d="M55.9,48.1 C55.9,48.1 36.1,54 31,62.9 C25.9,71.8 32.1,81.5 32.1,81.5 C32.1,81.5 18.7,74.4 17.3,64.8 L10.3,76.6 C10.3,76.6 4.3,63.4 11.6,55.6 C18.9,47.8 55.9,48.1 55.9,48.1 Z" id="Path" fill="#000000"></path>
                <g transform="translate(23.000000, 0.000000)" fill="#FF0000" id="Shape">
                    <path d="M81.7,13.8 C51.4,11 37.2,51 37.2,51 C66.5,54.1 112,16.5 81.7,13.8 Z M46.7,44.5 C46.7,44.5 61.4,21.3 80.5,22.2 C99.5,23 57.8,43.1 46.7,44.5 Z"></path>
                    <path d="M40,7.7 C31.1,-1.3 2.3,-5.7 0.9,18.7 C-0.5,43.1 32.5,49.7 32.5,49.7 L37,50.9002545 C36.9,51 53.7,21.6 40,7.7 Z M30.1,46.2 C30.1,46.2 16.9,43 12.2,28.4 C4.8,5.8 25.5,4.9 31.1,16.1 C37.6,29.2 30.1,46.2 30.1,46.2 Z"></path>
                </g>
                <path d="M55,48.9 C55,48.9 32.3,40.4 17.7,46 C1,52.4 0.4,68.3 0.4,68.3 L13.8,58.7 C13.8,58.7 13.8,64.1 15.4,71.1 C17,78 20.2,79.6 20.2,79.6 C20.2,79.6 22.1,49 55,48.9 Z" id="Path" fill="#FF0000"></path>
            </g>
            <path d="M127.6,54.2 C127.6,54.2 133.2,47.2 141.4,44.9 C149.6,42.6 159.3,43.5 159.3,43.5 C159.3,43.5 140.4,44.3 127.6,54.2 Z" id="Path" fill="#FC7E7E"></path>
            <path d="M105.7,31.4 C105.7,31.4 88.6,25.2 81.5,32.8 C74.4,40.3 74.7,46 75.1,51.5 C75.1,51.5 80.1,27.8 105.7,31.4 Z" id="Path" fill="#FC7E7E"></path>
        </g>
    </g>
</svg>