<?xml version="1.0" encoding="UTF-8"?>
<svg width="80px" height="56px" viewBox="0 0 80 56" version="1.1" xmlns="http://www.w3.org/2000/svg" xmlns:xlink="http://www.w3.org/1999/xlink">
    <!-- Generator: Sketch 63 (92445) - https://sketch.com -->
    <title>Group</title>
    <desc>Created with Sketch.</desc>
    <g id="Page-1" stroke="none" stroke-width="1" fill="none" fill-rule="evenodd">
        <g id="iphone-6---79-decembre" transform="translate(-558.000000, -1174.000000)">
            <g id="Group" transform="translate(559.000000, 1175.000000)">
                <circle id="Oval" stroke="#FFFFFF" stroke-width="1.1803" fill="#4D9131" fill-rule="nonzero" cx="26.9" cy="27" r="26.7"></circle>
                <path d="M42.9,28.5 C42.9,37.5 35.6,44.8 26.4,44.8 C17.4,44.8 10.1,37.5 10.1,28.5" id="Path" stroke="#FFFFFF" stroke-width="2.3606" fill="#4D9131" fill-rule="nonzero" stroke-linecap="round" stroke-linejoin="round"></path>
                <path d="M13.7,20.4 C13.7,18.3 15.4,16.6 17.5,16.6 C19.6,16.6 21.3,18.3 21.3,20.4" id="Path" stroke="#FFFFFF" stroke-width="2.3606" fill="#4D9131" fill-rule="nonzero" stroke-linecap="round" stroke-linejoin="round"></path>
                <path d="M31.7,20.4 C31.7,18.3 33.4,16.6 35.5,16.6 C37.6,16.6 39.3,18.3 39.3,20.4" id="Path" stroke="#FFFFFF" stroke-width="2.3606" fill="#4D9131" fill-rule="nonzero"></path>
                <circle id="Oval" stroke="#4D9131" stroke-width="1.1803" fill="#FFFFFF" fill-rule="nonzero" cx="51.5" cy="27" r="26.7"></circle>
                <path d="M67.5,28.5 C67.5,37.5 60.2,44.8 51,44.8 C42,44.8 34.7,37.5 34.7,28.5" id="Path" stroke="#4D9131" stroke-width="2.3606" fill="#FFFFFF" fill-rule="nonzero" stroke-linecap="round" stroke-linejoin="round"></path>
                <path d="M38.3,20.4 C38.3,18.3 40,16.6 42.1,16.6 C44.2,16.6 45.9,18.3 45.9,20.4" id="Path" stroke="#4D9131" stroke-width="2.3606" stroke-linecap="round" stroke-linejoin="round"></path>
                <path d="M56.2,20.4 C56.2,18.3 57.9,16.6 60,16.6 C62.1,16.6 63.8,18.3 63.8,20.4" id="Path" stroke="#4D9131" stroke-width="2.3606" stroke-linecap="round" stroke-linejoin="round"></path>
            </g>
        </g>
    </g>
</svg>