<?xml version="1.0" encoding="UTF-8"?>
<svg width="40px" height="40px" viewBox="0 0 40 40" version="1.1" xmlns="http://www.w3.org/2000/svg" xmlns:xlink="http://www.w3.org/1999/xlink">
    <!-- Generator: Sketch 63 (92445) - https://sketch.com -->
    <title>like</title>
    <desc>Created with Sketch.</desc>
    <g id="Page-1" stroke="none" stroke-width="1" fill="none" fill-rule="evenodd">
        <g id="like" fill-rule="nonzero">
            <circle id="Oval" stroke="#000000" fill="#E30613" cx="20" cy="20" r="19.5"></circle>
            <path d="M13,12 C13,12 10.5702828,12.0888618 10.0978378,13.9549596 C9.62539274,15.8210574 10.9077435,15.1990248 13,12 Z" id="Path" fill="#FFFFFF"></path>
            <path d="M20,12.8529977 C20,12.8529977 17.5805838,8.55999718 12.983693,9.03699723 C8.38680215,9.51399729 7.25774125,11.5014975 6.53191638,13.4889977 C5.80609151,15.4764979 5.24156106,19.3719984 8.9513326,23.2674988 C12.6611041,27.1629992 19.5161168,32.0919998 20,34" id="Path" fill="#FCC8C8"></path>
            <path d="M20,12.8652893 C20,12.8652893 22.4194162,8.55859351 27.016307,9.03711526 C31.6131979,9.51563701 32.7422588,11.5094776 33.4680836,13.5033183 C34.1939085,15.4971589 34.7584389,19.4050866 31.0486674,23.3130142 C27.3388959,27.2209418 20.4838832,32.085913 20,34" id="Path" fill="#FCC8C8"></path>
        </g>
    </g>
</svg>