<?xml version="1.0" encoding="UTF-8"?>
<svg width="27px" height="28px" viewBox="0 0 27 28" version="1.1" xmlns="http://www.w3.org/2000/svg" xmlns:xlink="http://www.w3.org/1999/xlink">
    <title>share</title>
    <g id="Page-1" stroke="none" stroke-width="1" fill="none" fill-rule="evenodd">
        <g id="share" fill="#FFFFFF" fill-rule="nonzero">
            <polygon id="Path" points="11.372549 12.3529412 10.0392157 10.4705882 16.2352941 7.0196078 17.5686275 8.8235294"></polygon>
            <circle id="Oval" cx="6.2745098" cy="14" r="5.41176471"></circle>
            <circle id="Oval" cx="21.0196078" cy="5.6862745" r="5.41176471"></circle>
            <polygon id="Path" points="11.372549 15.6470588 10.0392157 17.4509804 16.2352941 20.9803922 17.5686275 19.1764706"></polygon>
            <circle id="Oval" cx="21.0196078" cy="22.3137255" r="5.41176471"></circle>
        </g>
    </g>
</svg>