<?xml version="1.0" encoding="UTF-8"?>
<svg width="95px" height="95px" viewBox="0 0 95 95" version="1.1" xmlns="http://www.w3.org/2000/svg" xmlns:xlink="http://www.w3.org/1999/xlink">
    <g stroke="none" stroke-width="1" fill="none" fill-rule="evenodd">
        <g id="twitter" transform="translate(0.778291, 0.974596)" fill-rule="nonzero">
            <circle fill="#C9C9C9" cx="46.6512702" cy="46.6512702" r="46.6512702"></circle>
            <path d="M21.0161663,53.5796767 C21.0161663,53.5796767 24.7113164,63.5103926 34.4110855,63.7413395 C34.4110855,63.7413395 25.1732102,71.5935335 14.0877598,69.9769053 C14.0877598,69.9769053 35.7967667,84.9884527 58.891455,69.2840647 C79.2147806,55.6581986 76.9053118,33.256351 76.9053118,33.256351 C81.2933025,31.1778291 84.0646651,25.6351039 84.0646651,25.6351039 C81.2933025,27.482679 75.9815242,27.9445727 75.9815242,27.9445727 C80.6004619,25.404157 81.9861432,20.3233256 81.9861432,20.3233256 C79.9076212,22.1709007 72.7482679,23.3256351 72.7482679,23.3256351 C72.7482679,23.3256351 66.2817552,15.2424942 54.2725173,21.47806 C46.4203233,25.6351039 47.8060046,36.9515012 47.8060046,36.9515012 C33.9491917,37.4133949 18.2448037,21.47806 18.2448037,21.47806 C18.2448037,21.47806 15.2424942,27.482679 16.8591224,33.4872979 C16.8591224,33.4872979 18.7066975,39.0300231 21.9399538,40.6466513 C21.9399538,40.6466513 18.9376443,41.5704388 16.1662818,39.4919169 C16.1662818,39.4919169 16.1662818,51.039261 27.0207852,53.3487298 C27.0207852,52.886836 26.5588915,54.5034642 21.0161663,53.5796767 L21.0161663,53.5796767 Z" fill="#FFFFFF"></path>
        </g>
    </g>
</svg>