<?xml version="1.0" encoding="UTF-8"?>
<svg width="54px" height="54px" viewBox="0 0 54 54" version="1.1" xmlns="http://www.w3.org/2000/svg" xmlns:xlink="http://www.w3.org/1999/xlink">
    <!-- Generator: Sketch 63.1 (92452) - https://sketch.com -->
    <title>follow_o</title>
    <desc>Created with Sketch.</desc>
    <g id="Page-1" stroke="none" stroke-width="1" fill="none" fill-rule="evenodd">
        <g id="follow_o" transform="translate(2.000000, 2.000000)">
            <circle id="Oval" stroke="#FFFFFF" stroke-width="3" fill-rule="nonzero" cx="25" cy="25" r="25"></circle>
            <circle id="Oval" fill="#FFFFFF" fill-rule="nonzero" cx="21" cy="20" r="13"></circle>
            <line x1="40.5" y1="20" x2="40.5" y2="30" id="Path" stroke="#FFFFFF" stroke-width="2" stroke-linecap="round" stroke-linejoin="round"></line>
            <line x1="45" y1="25.5" x2="35" y2="25.5" id="Path" stroke="#FFFFFF" stroke-width="2" stroke-linecap="round" stroke-linejoin="round"></line>
            <path d="M29,20 C29,24.4102564 25.433121,28 20.9490446,28 C16.566879,28 13,24.4102564 13,20" id="Path" stroke="#0B89B5" stroke-linecap="round" stroke-linejoin="round"></path>
            <circle id="Oval" fill="#0B89B5" fill-rule="nonzero" cx="17" cy="17" r="2"></circle>
            <circle id="Oval" fill="#0B89B5" fill-rule="nonzero" cx="25" cy="17" r="2"></circle>
            <path d="M27.6208531,51 L13.7867299,48.1550802 C12.2938389,48.1550802 11,46.9358289 11,45.4117647 L11,48.1550802 L11,34.8449198 C11,33.3208556 12.1943128,32 13.7867299,32 L13.7867299,32 L29.2132701,32 C30.7061611,32 32,33.2192513 32,34.8449198 L32,47.7486631 C32,49.2727273 29.1137441,51 27.6208531,51 Z" id="Path" fill="#FFFFFF" fill-rule="nonzero"></path>
        </g>
    </g>
</svg>