<?xml version="1.0" encoding="UTF-8"?>
<svg width="65px" height="65px" viewBox="0 0 65 65" version="1.1" xmlns="http://www.w3.org/2000/svg" xmlns:xlink="http://www.w3.org/1999/xlink">
    <title>islands</title>
    <g id="Page-1" stroke="none" stroke-width="1" fill="none" fill-rule="evenodd">
        <g id="islands" fill-rule="nonzero">
            <circle id="Oval" fill-opacity="0.2" fill="#A5E9F9" opacity="0" cx="32.5" cy="32.5" r="32.5"></circle>
            <polygon id="Path" fill="#2E3192" opacity="0.38" points="13.6 32.4 42.6 32.4 28.2 47.9"></polygon>
            <polygon id="Path" fill="#2E3192" opacity="0.38" points="27.3 32.4 47 32.4 37.2 42.9"></polygon>
            <polygon id="Path" fill="#2E3192" opacity="0.38" points="37.6 32.4 52.4 32.4 45.1 40.2"></polygon>
            <path d="M35.7,12.1 C36.3,11.9 37,11.8 37.7,12 C37.2,11.6 36.6,11.4 36,11.2 C35.1,11 34.3,11 33.4,11.2 C34,10.6 34.9,10.3 35.7,10.4 C36.7,10.6 37.5,11.2 38,12.1 C37.7,11.6 37.3,11 36.9,10.6 C36.1,10 35.3,9.5 34.4,9.1 C35.5,8.9 36.5,9.2 37.4,9.8 C38,10.3 38.3,11 38.3,11.8 C38.6,10.9 39.2,9.5 40.1,9.6 C41.4,9.6 42.9,11.1 42.9,11.1 C42.2,10.7 41.3,10.5 40.4,10.5 C39.5,10.6 38.8,11.6 38.4,12.2 C39,11.6 39.8,11.2 40.6,11.2 C42,11.2 43.6,13.3 43.6,13.3 C42.7,12.8 41.7,12.4 40.7,12.2 C40,12.2 39.3,12.2 38.6,12.4 C39.3,12.3 40.5,12.3 40.6,13.1 C40.6,13.9 40.5,14.7 40.1,15.5 C40.2,14.9 40.2,14.4 40.1,13.8 C39.9,13.1 38.5,12.6 38.3,12.4 L38.3,12.4 L38.3,12.5 L38.3,12.5 L38.3,12.5 L38.3,12.5 C38.2,12.7 38.1,13.4 38,14 C37.5,16.8 37.2,19.7 37.3,22.5 L36.8,22.5 C36.8,22.5 37.2,15.9 37.3,15.1 C37.4,14.3 37.9,12.5 37.9,12.2 C36.5,12.4 35.1,13 34.1,14 C34.3,13.1 34.9,12.4 35.7,12.1 Z" id="Path" fill="#006837"></path>
            <polygon id="Path" fill="#FBB03B" points="13.5 32.3 42.6 32.3 28.2 16.8"></polygon>
            <polygon id="Path" fill="#F7931E" points="27.2 32.3 47 32.3 37.2 21.8"></polygon>
            <polygon id="Path" fill="#F15A24" points="37.6 32.3 52.4 32.3 45 24.4"></polygon>
        </g>
    </g>
</svg>