<?xml version="1.0" encoding="UTF-8"?>
<svg width="36px" height="36px" viewBox="0 0 36 36" version="1.1" xmlns="http://www.w3.org/2000/svg" xmlns:xlink="http://www.w3.org/1999/xlink">
    <!-- Generator: Sketch 62 (91390) - https://sketch.com -->
    <title>islands</title>
    <desc>Created with Sketch.</desc>
    <g id="Page-1" stroke="none" stroke-width="1" fill="none" fill-rule="evenodd">
        <g id="islands" fill-rule="nonzero">
            <circle id="Oval" stroke="#FFFFFF" fill="#A5E9F9" cx="18" cy="18" r="17.5"></circle>
            <path d="M35,18 C35,27.3961661 27.3961661,35 18,35 C8.60383386,35 1,27.3961661 1,18 L1,18 L35,18 Z" id="Path" fill="#3FA8D7"></path>
            <polygon id="Path" fill="#2E3192" opacity="0.38" points="8 18 24 18 16.0551724 27"></polygon>
            <polygon id="Path" fill="#2E3192" opacity="0.38" points="15 18 26 18 20.5279188 24"></polygon>
            <polygon id="Path" fill="#2E3192" opacity="0.38" points="21 18 29 18 25.0540541 22"></polygon>
            <path d="M19.3529412,6.59206669 C19.7058824,6.48806798 20.1176471,6.43606862 20.5294118,6.54006734 C20.2352941,6.3320699 19.8823529,6.22807118 19.5294118,6.12407247 C19,6.02007375 18.5294118,6.02007375 18,6.12407247 C18.3529412,5.81207631 18.8823529,5.65607824 19.3529412,5.7080776 C19.9411765,5.81207631 20.4117647,6.12407247 20.7058824,6.59206669 C20.5294118,6.3320699 20.2941176,6.02007375 20.0588235,5.81207631 C19.5882353,5.50008016 19.1176471,5.24008337 18.5882353,5.03208593 C19.2352941,4.92808722 19.8235294,5.08408529 20.3529412,5.39608144 C20.7058824,5.65607824 20.8823529,6.02007375 20.8823529,6.43606862 C21.0588235,5.96807439 21.4117647,5.24008337 21.9411765,5.29208273 C22.7058824,5.29208273 23.5882353,6.07207311 23.5882353,6.07207311 C23.1764706,5.86407567 22.6470588,5.76007696 22.1176471,5.76007696 C21.5882353,5.81207631 21.1764706,6.3320699 20.9411765,6.64406605 C21.2941176,6.3320699 21.7647059,6.12407247 22.2352941,6.12407247 C23.0588235,6.12407247 24,7.216059 24,7.216059 C23.4705882,6.95606221 22.8823529,6.74806477 22.2941176,6.64406605 C21.8823529,6.64406605 21.4705882,6.64406605 21.0588235,6.74806477 C21.4705882,6.69606541 22.1764706,6.69606541 22.2352941,7.11206028 C22.2352941,7.52805515 22.1764706,7.94405002 21.9411765,8.36004489 C22,8.04804874 22,7.78805195 21.9411765,7.47605579 C21.8235294,7.11206028 21,6.85206349 20.8823529,6.74806477 L20.8823529,6.74806477 L20.8823529,6.80006413 L20.8823529,6.80006413 L20.8823529,6.80006413 L20.8823529,6.80006413 C20.8235294,6.90406285 20.7647059,7.26805836 20.7058824,7.58005451 C20.4117647,9.03603655 20.2352941,10.544018 20.2941176,12 L20,12 C20,12 20.2352941,8.56804233 20.2941176,8.15204746 C20.3529412,7.73605259 20.6470588,6.80006413 20.6470588,6.64406605 C19.8235294,6.74806477 19,7.06006092 18.4117647,7.58005451 C18.5294118,7.11206028 18.8823529,6.74806477 19.3529412,6.59206669 Z" id="Path" fill="#006837"></path>
            <polygon id="Path" fill="#FBB03B" points="8 18 24 18 16.0824742 9"></polygon>
            <polygon id="Path" fill="#F7931E" points="15 18 26 18 20.5555556 12"></polygon>
            <polygon id="Path" fill="#F15A24" points="21 18 29 18 25 14"></polygon>
        </g>
    </g>
</svg>