<?xml version="1.0" encoding="UTF-8"?>
<svg width="35px" height="35px" viewBox="0 0 35 35" version="1.1" xmlns="http://www.w3.org/2000/svg" xmlns:xlink="http://www.w3.org/1999/xlink">
    <!-- Generator: Sketch 62 (91390) - https://sketch.com -->
    <title>like</title>
    <desc>Created with Sketch.</desc>
    <g id="Page-1" stroke="none" stroke-width="1" fill="none" fill-rule="evenodd">
        <g id="like" fill-rule="nonzero">
            <circle id="Oval" stroke="#FFFFFF" stroke-width="1.5" fill="#D82257" cx="17.5" cy="17.5" r="16.75"></circle>
            <path d="M17.5,10.7129339 C17.5,10.7129339 19.6064837,6.58195528 23.5368739,7.03466526 C27.4672642,7.48737525 28.4691283,9.41139263 29.0599714,11.3071158 C29.6508144,13.2311332 30.1645908,16.9942849 26.9534876,20.7291423 C23.7423845,24.4639996 17.9623988,29.1891601 17.5,31" id="Path" fill="#FFFFFF"></path>
            <path d="M17.5,10.7129339 C17.5,10.7129339 15.3935163,6.58195528 11.4631261,7.03466526 C7.5327358,7.48737525 6.53087161,9.41139263 5.94002863,11.3071158 C5.34918565,13.2311332 4.83540915,16.9942849 8.04651231,20.7291423 C11.2576154,24.4639996 17.0376012,29.1891601 17.5,31" id="Path" fill="#FFFFFF"></path>
        </g>
    </g>
</svg>