<?xml version="1.0" encoding="UTF-8"?>
<svg width="22px" height="12px" viewBox="0 0 22 12" version="1.1" xmlns="http://www.w3.org/2000/svg" xmlns:xlink="http://www.w3.org/1999/xlink">
    <!-- Generator: Sketch 55.1 (78136) - https://sketchapp.com -->
    <title>islands</title>
    <desc>Created with Sketch.</desc>
    <g id="Page-1" stroke="none" stroke-width="1" fill="none" fill-rule="evenodd">
        <g id="islands" transform="translate(-1.000000, -6.000000)">
            <polygon id="Path" points="0 0 24 0 24 24 0 24"></polygon>
            <path d="M14,6 L10.25,11 L13.1,14.8 L11.5,16 C9.81,13.75 7,10 7,10 L1,18 L23,18 L14,6 Z" id="Path" fill="#FFF" fill-rule="nonzero"></path>
        </g>
    </g>
</svg>