<?xml version="1.0" encoding="UTF-8"?>
<svg width="24px" height="24px" viewBox="0 0 24 24" version="1.1" xmlns="http://www.w3.org/2000/svg" xmlns:xlink="http://www.w3.org/1999/xlink">
    <title>album-24px</title>
    <g id="Page-1" stroke="none" stroke-width="1" fill="none" fill-rule="evenodd">
        <g id="album-24px">
            <polygon id="Path" points="0 0 24 0 24 24 0 24"></polygon>
            <path d="M12,2 C6.48,2 2,6.48 2,12 C2,17.52 6.48,22 12,22 C17.52,22 22,17.52 22,12 C22,6.48 17.52,2 12,2 Z M12,16.5 C9.51,16.5 7.5,14.49 7.5,12 C7.5,9.51 9.51,7.5 12,7.5 C14.49,7.5 16.5,9.51 16.5,12 C16.5,14.49 14.49,16.5 12,16.5 Z M12,11 C11.45,11 11,11.45 11,12 C11,12.55 11.45,13 12,13 C12.55,13 13,12.55 13,12 C13,11.45 12.55,11 12,11 Z" id="Shape" fill="#FFFFFF" fill-rule="nonzero"></path>
        </g>
    </g>
</svg>