<?xml version="1.0" encoding="UTF-8"?>
<svg width="67px" height="67px" viewBox="0 0 67 67" version="1.1" xmlns="http://www.w3.org/2000/svg" xmlns:xlink="http://www.w3.org/1999/xlink">
    <!-- Generator: Sketch 61.1 (89650) - https://sketch.com -->
    <title>add track validated</title>
    <desc>Created with Sketch.</desc>
    <g id="Page-1" stroke="none" stroke-width="1" fill="none" fill-rule="evenodd">
        <g id="add-track-validated">
            <path d="M11.5,58.2 C-1.9,46 -2.8,25.1 9.4,11.7 C21.6,-1.8 42.4,-2.7 55.9,9.6 C69.3,21.9 70.3,42.6 58,56.1 C45.7,69.5 24.9,70.5 11.5,58.2" id="Path" fill="#241F20" fill-rule="nonzero"></path>
            <path d="M14.1,55.9 C2,44.8 1.1,25.9 12.2,13.8 C23.3,1.7 42.1,0.8 54.3,11.9" id="Path" fill="#747374" fill-rule="nonzero"></path>
            <path d="M3.9,33.6 C3.5,17.1 16.5,3.5 33,3.1 C49.4,2.7 63.1,15.7 63.4,32.2" id="Path" fill="#000000" fill-rule="nonzero"></path>
            <path d="M24.6,43.9 C19.1,38.9 18.7,30.4 23.7,24.9 C28.7,19.4 37.2,19 42.7,24 C48.2,29 48.6,37.5 43.6,43 C38.6,48.5 30.1,48.9 24.6,43.9" id="Path" fill="#8CC63F" fill-rule="nonzero"></path>
            <polyline id="Path" stroke="#FFFFFF" stroke-width="2.554" stroke-linecap="round" stroke-linejoin="round" points="28.1 34.1 32.1 38.1 40.3 29.9"></polyline>
        </g>
    </g>
</svg>