<?xml version="1.0" encoding="UTF-8"?>
<svg width="72px" height="67px" viewBox="0 0 72 67" version="1.1" xmlns="http://www.w3.org/2000/svg" xmlns:xlink="http://www.w3.org/1999/xlink">
    <!-- Generator: Sketch 63 (92445) - https://sketch.com -->
    <title>Group</title>
    <desc>Created with Sketch.</desc>
    <g id="Page-1" stroke="none" stroke-width="1" fill="none" fill-rule="evenodd">
        <g id="iphone-6---79-decembre" transform="translate(-662.000000, -1169.000000)" fill="#FCA4A4" fill-rule="nonzero">
            <g id="Group" transform="translate(662.000000, 1169.000000)">
                <path d="M36.6,10.6 C36.6,10.6 30.2,-0.7 18.3,0.5 C6.4,1.7 3.4,7 1.6,12.3 C-0.2,17.6 -1.7,27.9 8,38.2 C17.7,48.4 34.8,61.4 36.2,66.4" id="Path"></path>
                <path d="M35.6,10.7 C35.6,10.7 42,-0.6 53.9,0.6 C65.8,1.8 68.8,7.1 70.6,12.4 C72.4,17.7 73.9,28 64.2,38.3 C54.5,48.5 37.4,61.5 36,66.5" id="Path"></path>
            </g>
        </g>
    </g>
</svg>