<?xml version="1.0" encoding="UTF-8"?>
<svg width="58px" height="45px" viewBox="0 0 58 45" version="1.1" xmlns="http://www.w3.org/2000/svg" xmlns:xlink="http://www.w3.org/1999/xlink">
    <!-- Generator: Sketch 63.1 (92452) - https://sketch.com -->
    <title>shuffle-on</title>
    <desc>Created with Sketch.</desc>
    <g id="Page-1" stroke="none" stroke-width="1" fill="none" fill-rule="evenodd">
        <g id="shuffle-on" transform="translate(-1.000000, 0.000000)" fill-rule="nonzero">
            <g id="Group">
                <circle id="Oval" fill="#C5EFF9" cx="30" cy="22.8" r="21.9"></circle>
                <circle id="Oval" fill="#0085AC" cx="29.9" cy="22.7" r="19.3"></circle>
                <path d="M14,13.8 C14.1,13.9 14.3,13.9 14.4,13.8 C14.5,13.7 14.5,13.5 14.4,13.4 L14.4,13.4 C14.2,13.2 14.1,13 14.1,12.8 C14,12.6 14.2,12.5 14.4,12.5 C14.7,12.5 15,12.5 15.2,12.3 C15.5,12.2 15.8,12.1 16.1,12.2 C16.5,12.4 17,12.7 17.3,13 C17.6,13.3 18,13.7 18.4,13.9 C18.6,14 18.8,14.2 18.9,14.4 C19,14.6 19.2,14.7 19.5,14.7 C19.8,14.7 20,14.7 20,14.8 C20,14.9 20.1,14.9 20.3,14.9 C20.4,14.8 20.6,14.9 20.7,15 L20.7,15 C20.7,15.1 20.9,15.2 20.9,15.1 C21,15.1 21.2,15.2 21.5,15.5 C21.8,15.8 22,16.1 22.3,16.5 C22.5,16.8 22.5,17 22.3,17.1 C22.1,17.2 22.4,17.4 22.8,17.7 C23.2,17.9 23.5,18 23.4,17.8 C23.3,17.6 23.4,17.5 23.5,17.4 C23.7,17.4 23.9,17.5 24.1,17.7 C24.4,17.9 24.8,18.1 25.1,18.2 C25.4,18.3 25.7,18.2 25.7,17.9 C25.7,17.6 25.8,17.3 25.9,17.1 C26.1,16.8 26.3,16.4 26.5,16.1 C26.7,15.7 27.1,15.5 27.3,15.6 C27.5,15.7 27.5,15.9 27.4,16 C27.4,16.1 27.3,16.1 27.3,16.1 C27.1,16.3 26.8,16.4 26.8,16.4 C26.8,16.4 26.5,16.5 26.4,16.7 C26.3,16.9 26.2,17.2 26.3,17.5 C26.4,17.7 26.3,18 26.2,18 C26.1,18.1 26,18.3 26,18.5 C26,18.7 26,18.7 26.2,18.6 C26.4,18.5 26.5,18.4 26.5,18.5 C26.5,18.7 26.5,18.8 26.5,19 C26.4,19.2 26.5,19.3 26.7,19.2 C26.9,19.1 27,18.9 27.1,18.7 C27.2,18.6 27.3,18.6 27.4,18.7 L27.4,18.7 C27.5,18.8 27.5,19 27.4,19.2 C27.3,19.4 27.3,19.6 27.2,19.8 C27.2,20 27.1,20.1 26.9,20.1 C26.7,20.1 26.5,20.1 26.3,20.1 C26.1,20.1 25.9,20.2 25.8,20.5 C25.7,20.8 25.4,20.9 25.2,20.8 C24.9,20.8 24.5,20.9 24.3,21.1 C24,21.3 23.8,21.6 23.8,21.8 C23.9,21.9 23.9,22.1 23.9,22.2 L23.8,22.4 C23.8,22.5 23.9,22.7 24.1,23 C24.3,23.3 24.5,23.5 24.8,23.7 C25,23.8 25,24.2 24.8,24.5 C24.6,24.8 24.6,25.1 24.7,25.2 C24.8,25.3 25,25 25.2,24.7 C25.4,24.4 25.7,24.1 25.9,24.1 C26.1,24.1 26.2,24 26.2,23.8 L26.2,23.7 C26.2,23.5 26.2,23.4 26.3,23.2 C26.4,23.1 26.6,22.9 26.6,22.7 C26.7,22.5 26.9,22.4 27.1,22.4 L27.1,22.4 C27.3,22.5 27.5,22.7 27.6,23 C27.6,23.3 27.6,23.5 27.5,23.7 C27.4,23.9 27.4,24.1 27.5,24.1 C27.6,24.2 28,24 28.3,23.8 C28.6,23.6 28.8,23.8 28.7,24.3 C28.6,24.7 28.5,25.1 28.4,25.5 C28.3,25.7 28.5,26 28.7,26.3 C28.9,26.6 29.1,26.9 28.9,27 C28.8,27.1 28.7,27.3 28.8,27.6 C28.9,27.8 28.7,28.1 28.5,28.2 C28.3,28.3 28,28.2 27.9,27.9 C27.8,27.7 27.8,27.4 27.8,27.2 C27.9,27.1 27.6,26.8 27.2,26.7 C26.8,26.6 26.6,26.6 26.7,26.8 C26.8,27 26.8,27.2 26.7,27.3 C26.6,27.4 26.6,27.5 26.7,27.6 L26.7,27.6 C26.8,27.7 26.8,27.8 26.6,27.9 C26.4,28 26.2,28 26,27.9 C25.8,27.8 25.6,27.7 25.3,27.8 C25.1,27.8 24.9,27.9 24.7,28 C24.6,28.1 24.4,28.2 24.2,28.3 C24,28.4 23.8,28.5 23.7,28.7 C23.5,28.9 23.3,29.1 23,29.1 C22.6,29.2 22.3,29.5 22.2,29.9 C22.1,30.2 21.9,30.2 21.9,29.9 C21.8,29.6 21.7,29.2 21.4,29 C21.1,28.8 20.7,28.7 20.4,28.6 C20,28.5 19.7,28.6 19.4,28.9 C19.1,29.1 19,29.4 19,29.7 C19.1,29.9 19.2,30.1 19.4,30.3 C19.6,30.4 19.8,30.4 20,30.3 C20.2,30.2 20.3,30.2 20.5,30.3 C20.6,30.4 20.6,30.6 20.5,30.7 C20.4,30.8 20.3,31 20.3,31.2 C20.4,31.4 20.5,31.5 20.6,31.6 C20.7,31.8 20.7,32 20.6,32.2 C20.5,32.5 20.6,32.8 20.8,33 C21,33.2 21.1,33.4 20.9,33.4 C20.7,33.4 20.5,33.4 20.3,33.3 C20.1,33.1 20,32.9 19.9,32.7 C19.8,32.4 19.7,32.2 19.6,32 C19.4,31.8 19.3,31.5 19.2,31.3 C19.1,31 18.9,30.8 18.6,30.7 C18.3,30.5 18.1,30.3 17.9,30.1 C17.7,29.9 17.6,29.7 17.6,29.4 C17.6,29 17.6,28.5 17.5,28.1 C17.4,27.5 17.3,27.4 17.3,27.8 C17.3,28.2 17.2,28.3 17,28 C16.8,27.6 16.7,27.1 16.7,26.7 C16.7,26.3 16.6,25.8 16.3,25.5 C16.1,25.2 16.1,24.7 16.3,24.4 C16.5,24 16.8,23.5 17,23.2 C17.2,22.9 17.2,22.5 17.2,22.1 C17.1,21.8 17.1,21.5 17.3,21.2 C17.4,20.9 17.4,20.7 17.4,20.4 C17.4,20.2 17.3,19.7 17.3,19.5 C17.3,19.3 17.1,19 16.9,19 C16.6,18.9 16.4,18.7 16.2,18.5 C16,18.2 15.8,17.9 15.6,17.7 C15.5,17.5 15.2,17.5 15,17.5 C14.8,17.6 14.6,17.6 14.5,17.6 C14.3,17.6 14.1,17.7 14,17.8 C13.6,18 13.3,18.1 12.9,18.1 C12.5,18.1 12.3,18.1 12.6,17.9 C12.8,17.8 13.1,17.6 13.2,17.5 C13.3,17.3 13.3,17.1 13.3,17 C13.3,16.8 13.2,16.6 13.1,16.6 C13,16.6 12.9,16.4 12.8,16.2 C12.8,16 12.8,15.8 12.9,15.6 C13.1,15.5 13.4,15.4 13.7,15.5 C14,15.6 14.3,15.6 14.3,15.5 C14.3,15.4 14.2,15.3 14,15.2 C13.8,15.1 13.6,15 13.5,14.8 C13.4,14.7 13.4,14.5 13.5,14.4 C13.6,13.9 13.8,13.8 14,13.8 Z" id="Path" fill="#FFE73F"></path>
                <path d="M20.6,36.6 C20.4,36.4 20.2,36.2 20,36 C19.9,35.8 19.9,35.6 20,35.5 C20.1,35.4 20.2,35.4 20.1,35.3 C20,35.2 20.1,35.1 20.2,35 C20.4,34.8 20.5,34.7 20.6,34.5 C20.7,34.4 20.7,34.2 20.8,34 C20.8,33.9 21,33.9 21.2,33.8 C21.4,33.7 21.6,33.6 21.8,33.4 C22,33.2 22.1,33.1 22.2,32.9 C22.4,32.7 22.6,32.6 22.9,32.6 C23.2,32.6 23.4,32.4 23.6,32.2 C23.7,32 23.8,31.9 24,31.8 C24.2,31.8 24.4,31.8 24.6,32 C24.8,32.1 24.9,32.1 24.8,31.8 C24.8,31.5 24.8,31.3 25,31 C25.1,30.8 25.3,30.7 25.5,30.7 C25.8,30.8 26,30.9 26.2,31.1 C26.4,31.3 26.5,31.4 26.6,31.6 C26.6,31.7 26.8,31.8 27.1,31.9 C27.4,32 27.7,32.2 27.9,32.5 C28.1,32.7 28.1,33 28,33.3 C27.9,33.5 27.9,33.8 28.1,34 C28.2,34.2 28.4,34.3 28.5,34.5 C28.7,34.7 28.8,34.9 28.9,35.1 C29,35.3 29.1,35.6 29.1,35.8 C29.1,35.9 29.1,36.1 29.1,36.2 C29.1,36.3 29.3,36.3 29.6,36.4 C29.9,36.5 30,36.6 29.9,36.7 C29.8,36.8 29.8,37.1 29.7,37.2 C29.6,37.3 29.7,37.5 29.8,37.6 L29.8,37.6 C29.9,37.6 30,37.8 30,37.9 C30,38 30,38.1 30.2,38.1 C30.4,38.1 30.5,38.2 30.6,38.3 C30.7,38.4 30.7,38.6 30.7,38.7 C30.7,38.8 30.7,38.9 30.8,39 C30.9,39 31,39 31.1,38.9 C31.2,38.8 31.4,39 31.7,39.3 C31.9,39.6 32.3,39.8 32.7,39.8 C33,39.7 33.3,39.8 33.4,40 C33.5,40.2 33.2,40.4 32.9,40.5 C32.4,40.7 31.9,40.7 31.5,40.7 C31,40.7 30.6,40.4 30.4,40 C30.3,39.7 30.1,39.4 30,39.5 C29.8,39.6 29.7,39.6 29.5,39.5 C29.3,39.4 29.2,39.3 29.2,39.2 C29.2,39.1 29.1,39.1 28.9,39.1 C28.6,39 28.4,38.9 28.2,38.6 C28,38.3 27.8,38.1 27.6,38.2 C27.2,38.1 26.8,38 26.5,37.7 C26.1,37.4 25.7,37.2 25.3,37.1 C25,37.1 24.8,37.2 24.6,37.4 C24.5,37.6 24.3,37.7 24.1,37.7 C23.9,37.7 23.6,37.7 23.4,37.7 C23.2,37.8 22.8,37.8 22.7,37.8 C22.6,37.8 22.5,37.8 22.4,37.8 C22.3,37.8 22.3,37.7 22.3,37.6 C22.3,37.5 22.3,37.4 22.2,37.4 C22.1,37.4 22,37.4 21.9,37.4 C21.9,37.5 21.7,37.4 21.6,37.3 C21.5,37.2 21.4,37 21.4,36.8 C20.9,36.9 20.8,36.7 20.6,36.6 Z" id="Path" fill="#FFE73F"></path>
                <path d="M40.5,11.9 C40.6,12 40.5,12 40.3,11.9 C40.1,11.8 39.8,11.8 39.6,11.8 C39.4,11.8 39.3,11.9 39.3,12.1 C39.3,12.2 39.3,12.4 39.3,12.5 C39.3,12.6 39.2,12.7 39.2,12.6 C39.2,12.5 39,12.5 39,12.6 C38.9,12.7 38.8,12.8 38.7,12.8 C38.6,12.8 38.5,12.7 38.5,12.6 L38.5,12.6 C38.5,12.5 38.3,12.6 38.2,12.7 C38,12.9 37.9,13.1 37.9,13.3 C37.9,13.5 37.8,13.6 37.7,13.6 C37.6,13.5 37.5,13.4 37.5,13.3 C37.5,13.2 37.4,13.1 37.3,13 L37.3,13 C37.2,13 37.1,13.1 37.2,13.3 L37.4,13.8 C37.4,13.9 37.4,14 37.3,14.1 L37.3,14.1 C37.2,14.1 37.1,14.2 37.1,14.4 C37.1,14.6 37.2,14.7 37.3,14.8 C37.4,14.9 37.4,15 37.2,15 C37,15 36.8,14.9 36.6,14.8 C36.4,14.7 36.3,14.5 36.2,14.4 C36.1,14.3 36.2,14.3 36.3,14.3 C36.5,14.3 36.6,14.3 36.8,14.2 C36.9,14.1 37,14 37,13.9 C36.9,13.8 36.8,13.7 36.7,13.6 C36.5,13.5 36.3,13.4 36,13.3 C35.8,13.2 35.6,13.2 35.4,13.3 C35.3,13.4 35.1,13.4 35,13.4 C34.9,13.4 34.9,13.3 35,13.2 C35.1,13.1 35.2,13 35.1,12.9 C35.1,12.8 34.8,12.8 34.6,12.9 C34.4,13 34.2,13.2 34,13.4 C33.9,13.6 33.8,13.8 33.6,13.9 C33.4,14.1 33.3,14.3 33.3,14.6 C33.2,14.9 33.2,15.1 33.2,15.4 C33.2,15.7 33.2,15.9 33.1,16.2 C33,16.4 32.9,16.7 32.8,16.9 C32.7,17.1 32.7,17.3 32.7,17.5 C32.8,17.7 32.9,17.9 33,18.1 C33.1,18.3 33.3,18.2 33.5,18 C33.7,17.8 34,17.9 34.1,18 C34.1,18 34.1,18 34.1,18.1 C34.3,18.3 34.4,18.5 34.5,18.4 C34.5,18.2 34.5,18.1 34.5,17.9 C34.5,17.7 34.5,17.5 34.5,17.3 C34.6,17.2 34.5,17 34.4,16.9 C34.3,16.8 34.2,16.7 34.1,16.6 C34.1,16.5 34.1,16.3 34.1,16.2 C34.2,16 34.3,15.7 34.4,15.5 C34.5,15.3 34.7,15.1 34.7,15.1 C34.8,15.2 34.8,15.2 34.9,15.3 C34.9,15.4 34.9,15.6 34.8,15.7 C34.7,15.9 34.7,16.1 34.8,16.3 C34.9,16.5 35,16.7 35.1,16.8 C35.2,16.9 35.3,17.1 35.4,17.3 C35.5,17.5 35.5,17.7 35.4,17.6 C35.3,17.5 35.2,17.7 35.3,18 C35.3,18.2 35.3,18.3 35.1,18.5 C35,18.6 34.9,18.6 34.8,18.6 C34.7,18.6 34.6,18.7 34.6,18.8 C34.5,18.9 34.4,18.9 34.3,18.9 C34.2,18.9 34.1,18.9 34,19 C33.9,19.1 33.8,19.1 33.7,19.2 C33.6,19.4 33.5,19.5 33.4,19.7 C33.4,19.9 33.3,20.1 33.2,20.2 C33.1,20.3 33,20.4 32.9,20.5 C32.8,20.6 32.8,20.6 32.9,20.7 C33,20.8 33,20.8 32.9,20.8 C32.8,20.8 32.6,20.9 32.5,20.9 C32.4,20.9 32.3,21 32.3,21.1 C32.4,21.2 32.5,21.3 32.6,21.2 C32.7,21.2 32.8,21.2 33,21.2 C33.1,21.2 33.2,21.3 33.2,21.4 L33.2,21.8 C33.2,21.9 33,22 32.8,22.1 C32.6,22.2 32.4,22.3 32.4,22.4 C32.4,22.6 32.5,22.7 32.5,22.9 C32.6,23.1 32.7,23.2 32.9,23.2 C33.1,23.2 33.3,23.2 33.4,23.1 C33.5,23 33.6,22.9 33.6,22.8 C33.6,22.7 33.6,22.6 33.6,22.5 C33.6,22.4 33.6,22.3 33.7,22.2 C33.8,22.1 33.9,21.9 33.9,21.8 C33.9,21.7 34,21.6 34.1,21.6 C34.2,21.6 34.3,21.5 34.4,21.5 C34.5,21.4 34.5,21.4 34.6,21.3 C34.7,21.2 34.8,21.3 34.8,21.4 C34.9,21.5 35,21.6 35.2,21.7 C35.4,21.7 35.5,21.8 35.7,21.9 C35.8,22 35.9,22 35.9,22 C36,22 36,21.9 35.9,21.9 C35.8,21.9 35.9,21.8 35.9,21.8 L36,21.7 C36,21.7 35.9,21.6 35.8,21.6 C35.7,21.6 35.6,21.6 35.5,21.6 C35.4,21.6 35.3,21.6 35.3,21.5 C35.2,21.4 35.1,21.4 35.1,21.3 L35.1,21.2 L35.1,21.2 C35.2,21.2 35.3,21.2 35.4,21.3 C35.5,21.4 35.7,21.4 35.8,21.5 C35.9,21.5 36.1,21.6 36.1,21.7 C36.2,21.9 36.3,22 36.4,22.1 C36.6,22.2 36.7,22.2 36.7,22.1 C36.7,22 36.7,21.9 36.7,21.9 C36.7,21.8 36.7,21.7 36.7,21.6 C36.7,21.5 36.8,21.5 36.9,21.5 C37,21.5 37.1,21.6 37.1,21.7 C37.2,21.8 37.2,21.9 37.3,22 C37.4,22.1 37.6,22.1 37.7,22.1 L38.2,21.9 C38.3,21.8 38.4,21.9 38.5,22 C38.5,22 38.5,22 38.5,22.1 C38.5,22.3 38.5,22.5 38.5,22.6 C38.5,22.7 38.4,22.9 38.4,22.9 C38.4,22.9 38.3,22.9 38.2,22.9 C38.2,22.9 38.1,22.9 38,22.9 C37.9,22.9 37.9,23 37.8,23 C37.7,23.1 37.6,23.1 37.5,23.1 C37.4,23.1 37.2,23.1 37.1,23.1 C37,23.1 36.8,23.1 36.7,23.1 C36.6,23.1 36.5,23.2 36.5,23.4 C36.5,23.5 36.5,23.6 36.5,23.7 C36.5,23.7 36.3,23.8 36.2,23.7 C36.1,23.7 35.9,23.6 35.8,23.5 C35.7,23.5 35.6,23.5 35.4,23.5 C35.3,23.5 35.2,23.5 35.1,23.5 C35,23.5 35,23.4 35,23.3 C35,23.2 35,23.1 34.9,23 C34.9,22.9 34.8,22.9 34.7,22.9 C34.6,22.9 34.5,23 34.5,23 C34.4,23.1 34.3,23.1 34.1,23.2 C34,23.2 33.8,23.3 33.7,23.3 C33.6,23.3 33.5,23.4 33.4,23.5 C33.3,23.6 33.3,23.7 33.2,23.7 C33.1,23.8 33,23.8 32.9,23.8 C32.8,23.8 32.7,23.8 32.7,23.9 C32.6,23.9 32.6,24 32.6,24.1 C32.6,24.2 32.5,24.3 32.4,24.4 C32.3,24.5 32.3,24.6 32.3,24.7 C32.3,24.8 32.3,25 32.3,25.1 L32.1,25.6 C32,25.8 32,25.9 32,26.1 C32,26.2 32,26.3 32,26.5 C32,26.6 32,26.7 32.1,26.8 C32.2,26.9 32.3,27 32.3,27.1 C32.3,27.2 32.3,27.4 32.3,27.5 C32.3,27.7 32.4,27.8 32.6,27.9 C32.8,28 32.9,28.1 33.1,28.2 C33.2,28.2 33.3,28.3 33.5,28.3 C33.6,28.4 33.8,28.4 33.9,28.4 C34.1,28.4 34.2,28.4 34.4,28.3 C34.5,28.2 34.6,28.2 34.6,28.3 C34.6,28.4 34.8,28.3 35,28.1 C35.2,27.9 35.4,27.8 35.5,27.7 C35.6,27.6 35.7,27.6 35.8,27.7 C35.9,27.8 36,27.8 36.1,27.8 C36.2,27.8 36.3,27.8 36.4,27.9 C36.5,28 36.6,28.1 36.5,28.3 C36.5,28.4 36.5,28.6 36.7,28.7 C36.8,28.8 37,28.9 37.1,28.9 C37.2,29 37.4,29.1 37.4,29.2 C37.5,29.3 37.6,29.5 37.6,29.6 C37.7,29.7 37.7,29.9 37.7,30 C37.7,30.1 37.7,30.3 37.7,30.4 C37.8,30.5 37.9,30.7 38,30.8 L38.3,31.2 C38.4,31.3 38.5,31.4 38.5,31.6 C38.6,31.8 38.7,31.9 38.8,32 L39.1,32.3 C39.2,32.4 39.3,32.5 39.3,32.7 C39.3,32.8 39.4,32.9 39.5,32.9 C39.7,32.9 39.8,32.8 39.9,32.7 L40.6,32.2 C40.8,32.1 41,31.8 41,31.6 C41,31.4 41,31.2 41,31 C41,30.9 41,30.7 41.1,30.6 C41.2,30.5 41.2,30.3 41.1,30.1 C41,29.9 41,29.7 41.1,29.5 C41.2,29.4 41.3,29.2 41.4,29.1 C41.5,29 41.5,28.9 41.5,28.8 C41.5,28.7 41.4,28.6 41.4,28.4 C41.3,28.2 41.3,28.1 41.2,28 C41,27.8 40.9,27.6 40.9,27.3 C40.9,27.1 41,26.9 41.1,26.7 C41.2,26.5 41.3,26.2 41.4,26.1 C41.4,26 41.5,25.8 41.6,25.6 C41.7,25.4 41.7,25.1 41.7,24.9 C41.7,24.7 41.6,24.6 41.4,24.7 C41.2,24.8 41.1,24.9 40.9,25 C40.8,25 40.6,25.1 40.5,25.1 C40.4,25.1 40.2,24.9 40.1,24.7 C40,24.5 39.8,24.3 39.7,24.1 C39.6,24 39.5,23.9 39.4,23.8 C39.3,23.7 39.2,23.6 39.1,23.5 C39,23.4 38.8,23.2 38.7,23.1 C38.6,23 38.8,23 39.1,23.1 C39.4,23.2 39.6,23.4 39.8,23.6 C39.9,23.8 40,23.9 40.1,24 C40.3,24.1 40.4,24.3 40.5,24.5 C40.6,24.7 40.8,24.6 41.1,24.4 L41.8,23.7 C42,23.5 42.1,23.3 42.2,23.1 C42.3,23 42.3,22.8 42.3,22.7 C42.3,22.6 42.2,22.5 42.1,22.4 C42,22.4 41.8,22.4 41.7,22.5 C41.6,22.6 41.4,22.6 41.3,22.5 C41.1,22.4 40.9,22.4 40.7,22.3 C40.6,22.2 40.5,22.1 40.4,22 C40.4,21.9 40.5,21.9 40.6,21.9 L41.1,22 C41.3,22.1 41.5,22.1 41.7,22.1 C41.8,22.1 42,22.1 42.1,22.1 C42.2,22.1 42.4,22.1 42.5,22 C42.7,21.9 42.9,21.8 43.1,21.8 C43.3,21.8 43.5,21.8 43.7,21.9 C43.8,21.9 43.9,22 43.9,22.1 C43.9,22.2 44,22.2 44.1,22.3 C44.2,22.4 44.3,22.3 44.3,22.3 C44.3,22.3 44.4,22.4 44.5,22.6 C44.7,22.9 44.9,23.1 45.2,23.4 C45.4,23.6 45.7,23.7 45.7,23.6 C45.8,23.4 45.8,23.2 45.7,23 C45.7,22.8 45.7,22.5 45.8,22.3 L46.2,21.7 C46.4,21.5 46.6,21.4 46.9,21.4 C47.1,21.4 47.3,21.5 47.5,21.7 C47.6,21.8 47.7,21.8 47.8,21.8 C47.9,21.7 48,21.5 48.1,21.4 C48.1,20.9 48.1,20.5 48,20 C47.9,19.5 47.4,18 46.9,16.7 C46.4,15.4 45.8,14 45.6,13.6 C45.3,13.1 45,12.6 44.6,12.2 C44.3,11.9 43.8,11.4 43.5,11.2 C43.2,11 42.9,10.8 42.6,10.6 C42.3,10.5 42,10.3 41.7,10.3 C41.4,10.2 41.1,10.3 41.1,10.4 C41.1,10.5 41.1,10.6 41.3,10.7 C41.5,10.8 41.4,10.8 41.3,10.8 C41.1,10.8 41,10.7 40.9,10.6 C40.8,10.5 40.8,10.4 40.7,10.2 C40.6,10.2 40.6,10.2 40.6,10.3 C40.6,10.4 40.6,10.6 40.6,10.7 C40.6,10.8 40.6,10.9 40.7,11 C40.8,11.1 40.8,11.2 40.9,11.3 C40.9,11.4 41.1,11.5 41.2,11.5 C41.3,11.5 41.4,11.6 41.4,11.7 C41.3,11.8 41.3,12 41.4,12.1 C41.5,12.3 41.4,12.4 41.3,12.6 C41.2,12.7 41.1,12.8 40.9,12.8 C40.8,12.8 40.8,12.7 40.9,12.6 C41,12.5 41.1,12.3 41.1,12.1 C41.1,11.9 41,11.8 40.9,11.7 C40.8,11.6 40.7,11.4 40.6,11.2 C40.5,11 40.5,10.9 40.4,10.7 C40.3,10.6 40.3,10.4 40.3,10.3 C40.3,10.2 40.3,10.1 40.2,10.2 C40.1,10.2 40,10.3 40.1,10.4 C40.1,10.6 40.1,10.7 40,10.8 C39.9,10.9 39.9,11.1 40,11.2 C40.1,11.3 40.2,11.4 40.3,11.5 C40.2,11.6 40.4,11.8 40.5,11.9 Z" id="Path" fill="#FFE73F"></path>
                <path d="M29.6,21.8 C29.5,21.7 29.5,21.5 29.5,21.4 C29.5,21.3 29.5,21.1 29.3,21.1 C29.2,21 29.3,20.8 29.5,20.5 C29.7,20.2 30.1,20.1 30.2,20.2 C30.4,20.4 30.5,20.7 30.5,20.9 C30.5,21.2 30.4,21.5 30.1,21.7 C30,21.9 29.7,21.9 29.6,21.8 Z" id="Path" fill="#FFE73F"></path>
                <path d="M29.5,17.1 C29.6,17.1 29.6,16.9 29.5,16.6 C29.4,16.3 29.4,16.1 29.5,16.1 C29.6,16 29.7,15.9 29.7,15.7 C29.7,15.5 29.9,15.5 30,15.6 C30.2,15.7 30.3,15.9 30.3,16.1 C30.3,16.3 30.4,16.4 30.5,16.4 C30.6,16.4 30.7,16.5 30.7,16.7 C30.8,17 30.9,17.2 31.1,17.4 C31.3,17.6 31.5,17.9 31.5,18.1 C31.6,18.3 31.7,18.5 32,18.5 C32.2,18.5 32.3,18.7 32.3,18.9 C32.2,19.1 32,19.3 31.7,19.4 L30.9,19.8 C30.7,19.9 30.6,19.8 30.7,19.7 C30.8,19.6 30.8,19.4 30.6,19.3 C30.5,19.2 30.4,19 30.5,18.7 C30.6,18.5 30.6,18.2 30.5,18 C30.4,17.9 30.3,17.7 30.2,17.6 L29.8,17.3 C29.5,17.2 29.4,17.1 29.5,17.1 Z" id="Path" fill="#FFE73F"></path>
                <path d="M18,11.8 C18,11.6 18,11.4 18.1,11.2 C18.2,11.1 18.3,11 18.5,11.1 L18.5,11.1 C18.7,11.2 18.8,11.2 18.8,11 C18.9,10.8 19,10.7 19.2,10.6 C19.4,10.6 19.5,10.5 19.6,10.3 C19.7,10.2 19.9,10.2 20.2,10.3 C20.4,10.4 20.7,10.6 20.9,10.8 C21,10.9 20.8,11.3 20.4,11.7 C20,12.1 19.6,12.4 19.4,12.3 C19.2,12.3 19,12.3 18.8,12.3 C18.7,12.3 18.6,12.3 18.6,12.2 C18.6,12.2 18.6,12.2 18.6,12.1 C18.6,12 18.5,11.9 18.3,11.9 L18.3,11.9 C18.2,12.1 18,12 18,11.8 L18,11.8 Z" id="Path" fill="#FFE73F"></path>
                <path d="M42.4,35.2 C41.9,35.2 41.5,35 41.4,34.8 C41.3,34.6 41.3,34.4 41.4,34.2 C41.5,34 41.5,33.8 41.5,33.6 C41.5,33.2 41.7,32.9 41.9,32.6 C42.1,32.3 42.3,31.9 42.3,31.6 C42.3,31.4 42.5,31.5 42.8,31.8 C43.1,32.1 43.3,32.6 43.3,33.1 C43.3,33.6 43.3,34.1 43.3,34.6 C43.3,35 43,35.3 42.6,35.3 C42.5,35.2 42.4,35.2 42.4,35.2 Z" id="Path" fill="#FFE73F"></path>
                <path d="M16.1,36 C14.3,36 12.4,35.9 10.6,35.7 C4.5,35 1.3,33.5 1,31.1 C0.4,27.3 7.1,24 9.1,23.1 C9.5,22.9 10,23 10.2,23.4 C10.4,23.8 10.3,24.3 9.9,24.5 L9.8,24.5 C5.3,26.5 2.4,29.1 2.6,30.8 C2.7,31.5 3.7,33.2 10.8,34 C29.2,36.1 56.5,26.2 57.2,20.5 C57.4,18.9 54.7,17.6 49.9,16.8 C49.5,16.7 49.1,16.3 49.2,15.9 C49.3,15.5 49.7,15.1 50.1,15.2 C50.1,15.2 50.1,15.2 50.2,15.2 C56.3,16.1 59.3,18 58.9,20.7 C57.9,27.2 34.4,36 16.1,36 Z" id="Path" fill="#FFFFFF"></path>
                <path d="M17,28.7 C15.3,28.7 13.6,28.6 11.8,28.4 C6.4,27.8 3.5,26.4 3.2,24.4 C2.8,21.8 4.6,20.3 8.4,18.6 L8.3,19.4 C3.9,21.4 3.6,22.6 3.9,24.3 C4.2,26 7,27.1 11.9,27.6 C19.5,28.5 29.6,27.2 38.9,24.3 C47.5,21.6 53.5,18.1 53.8,15.5 C54,13.7 53.6,12.4 48.6,11.6 L48.4,10.9 C54,11.8 54.9,13.3 54.6,15.6 C54.1,19.2 46.3,22.8 39.2,25 C32,27.4 24.6,28.6 17,28.7 Z" id="Path" fill="#FFFFFF"></path>
            </g>
            <circle id="Oval" fill="#E30613" cx="29.8" cy="27.2" r="8.6"></circle>
            <g id="ON" transform="translate(22.000000, 23.000000)">
                <g id="path-1-link" fill="#000000">
                    <path d="M0.0352367,4.0428564 C0.0352367,3.0867123 0.3857199,2.2654966 1.0866967,1.5791846 C1.7847405,0.8928725 2.6235538,0.5497217 3.6031615,0.5497217 C4.5710375,0.5497217 5.4010519,0.8958055 6.0932299,1.5879834 C6.7883408,2.2801613 7.135891,3.1116423 7.135891,4.0824512 C7.135891,5.059126 6.7868743,5.887674 6.0888305,6.5681201 C5.3878537,7.2514992 4.5417081,7.5931836 3.5503686,7.5931836 C2.6734143,7.5931836 1.8859271,7.2896271 1.1878832,6.6825049 C0.4194484,6.0108576 0.0352367,5.1309836 0.0352367,4.0428564 Z M1.069099,4.0560547 C1.069099,4.8068918 1.3213296,5.42427 1.8257982,5.908208 C2.327334,6.392146 2.9065843,6.6341113 3.5635668,6.6341113 C4.2762754,6.6341113 4.8775227,6.3877466 5.3673266,5.8950098 C5.8571304,5.396407 6.1020287,4.7892939 6.1020287,4.0736523 C6.1020287,3.3492119 5.8600634,2.7420988 5.3761254,2.2522949 C4.8951204,1.7595581 4.299739,1.5131934 3.5899633,1.5131934 C2.8831206,1.5131934 2.2862727,1.7595581 1.7994018,2.2522949 C1.3125308,2.7391658 1.069099,3.3404131 1.069099,4.0560547 Z M8.4249193,7.47 L8.4249193,0.2153662 L13.3786596,5.397876 L13.3786596,0.6773047 L14.403723,0.6773047 L14.403723,7.8835449 L9.4499828,2.7142334 L9.4499828,7.47 L8.4249193,7.47 Z" id="path-1"></path>
                </g>
                <g id="path-1-link" fill="#FFFFFF">
                    <path d="M0.0352367,4.0428564 C0.0352367,3.0867123 0.3857199,2.2654966 1.0866967,1.5791846 C1.7847405,0.8928725 2.6235538,0.5497217 3.6031615,0.5497217 C4.5710375,0.5497217 5.4010519,0.8958055 6.0932299,1.5879834 C6.7883408,2.2801613 7.135891,3.1116423 7.135891,4.0824512 C7.135891,5.059126 6.7868743,5.887674 6.0888305,6.5681201 C5.3878537,7.2514992 4.5417081,7.5931836 3.5503686,7.5931836 C2.6734143,7.5931836 1.8859271,7.2896271 1.1878832,6.6825049 C0.4194484,6.0108576 0.0352367,5.1309836 0.0352367,4.0428564 Z M1.069099,4.0560547 C1.069099,4.8068918 1.3213296,5.42427 1.8257982,5.908208 C2.327334,6.392146 2.9065843,6.6341113 3.5635668,6.6341113 C4.2762754,6.6341113 4.8775227,6.3877466 5.3673266,5.8950098 C5.8571304,5.396407 6.1020287,4.7892939 6.1020287,4.0736523 C6.1020287,3.3492119 5.8600634,2.7420988 5.3761254,2.2522949 C4.8951204,1.7595581 4.299739,1.5131934 3.5899633,1.5131934 C2.8831206,1.5131934 2.2862727,1.7595581 1.7994018,2.2522949 C1.3125308,2.7391658 1.069099,3.3404131 1.069099,4.0560547 Z M8.4249193,7.47 L8.4249193,0.2153662 L13.3786596,5.397876 L13.3786596,0.6773047 L14.403723,0.6773047 L14.403723,7.8835449 L9.4499828,2.7142334 L9.4499828,7.47 L8.4249193,7.47 Z" id="path-1"></path>
                </g>
            </g>
        </g>
    </g>
</svg>