<?xml version="1.0" encoding="UTF-8"?>
<svg width="65px" height="65px" viewBox="0 0 65 65" version="1.1" xmlns="http://www.w3.org/2000/svg" xmlns:xlink="http://www.w3.org/1999/xlink">
    <!-- Generator: Sketch 55.2 (78181) - https://sketchapp.com -->
    <title>random</title>
    <desc>Created with Sketch.</desc>
    <defs>
        <path d="M25.0352367,37.0428564 C25.0352367,36.0867123 25.3857199,35.2654966 26.0866967,34.5791846 C26.7847405,33.8928725 27.6235538,33.5497217 28.6031615,33.5497217 C29.5710375,33.5497217 30.4010519,33.8958055 31.0932299,34.5879834 C31.7883408,35.2801613 32.135891,36.1116423 32.135891,37.0824512 C32.135891,38.059126 31.7868743,38.887674 31.0888305,39.5681201 C30.3878537,40.2514992 29.5417081,40.5931836 28.5503686,40.5931836 C27.6734143,40.5931836 26.8859271,40.2896271 26.1878832,39.6825049 C25.4194484,39.0108576 25.0352367,38.1309836 25.0352367,37.0428564 Z M26.069099,37.0560547 C26.069099,37.8068918 26.3213296,38.42427 26.8257982,38.908208 C27.327334,39.392146 27.9065843,39.6341113 28.5635668,39.6341113 C29.2762754,39.6341113 29.8775227,39.3877466 30.3673266,38.8950098 C30.8571304,38.396407 31.1020287,37.7892939 31.1020287,37.0736523 C31.1020287,36.3492119 30.8600634,35.7420988 30.3761254,35.2522949 C29.8951204,34.7595581 29.299739,34.5131934 28.5899633,34.5131934 C27.8831206,34.5131934 27.2862727,34.7595581 26.7994018,35.2522949 C26.3125308,35.7391658 26.069099,36.3404131 26.069099,37.0560547 Z M33.4249193,40.47 L33.4249193,33.2153662 L38.3786596,38.397876 L38.3786596,33.6773047 L39.403723,33.6773047 L39.403723,40.8835449 L34.4499828,35.7142334 L34.4499828,40.47 L33.4249193,40.47 Z" id="path-1"></path>
    </defs>
    <g id="random" stroke="none" stroke-width="1" fill="none" fill-rule="evenodd">
        <g id="Group" fill-rule="nonzero">
            <circle id="Oval" fill="#03485B" cx="32.5" cy="32.5" r="32.5"></circle>
            <circle id="Oval" fill="#C5EFF9" cx="33" cy="32.8" r="21.9"></circle>
            <circle id="Oval" fill="#0085AC" cx="32.9" cy="32.7" r="19.3"></circle>
            <path d="M17,23.8 C17.1,23.9 17.3,23.9 17.4,23.8 C17.5,23.7 17.5,23.5 17.4,23.4 L17.4,23.4 C17.2,23.2 17.1,23 17.1,22.8 C17,22.6 17.2,22.5 17.4,22.5 C17.7,22.5 18,22.5 18.2,22.3 C18.5,22.2 18.8,22.1 19.1,22.2 C19.5,22.4 20,22.7 20.3,23 C20.6,23.3 21,23.7 21.4,23.9 C21.6,24 21.8,24.2 21.9,24.4 C22,24.6 22.2,24.7 22.5,24.7 C22.8,24.7 23,24.7 23,24.8 C23,24.9 23.1,24.9 23.3,24.9 C23.4,24.8 23.6,24.9 23.7,25 L23.7,25 C23.7,25.1 23.9,25.2 23.9,25.1 C24,25.1 24.2,25.2 24.5,25.5 C24.8,25.8 25,26.1 25.3,26.5 C25.5,26.8 25.5,27 25.3,27.1 C25.1,27.2 25.4,27.4 25.8,27.7 C26.2,27.9 26.5,28 26.4,27.8 C26.3,27.6 26.4,27.5 26.5,27.4 C26.7,27.4 26.9,27.5 27.1,27.7 C27.4,27.9 27.8,28.1 28.1,28.2 C28.4,28.3 28.7,28.2 28.7,27.9 C28.7,27.6 28.8,27.3 28.9,27.1 C29.1,26.8 29.3,26.4 29.5,26.1 C29.7,25.7 30.1,25.5 30.3,25.6 C30.5,25.7 30.5,25.9 30.4,26 C30.4,26.1 30.3,26.1 30.3,26.1 C30.1,26.3 29.8,26.4 29.8,26.4 C29.8,26.4 29.5,26.5 29.4,26.7 C29.3,26.9 29.2,27.2 29.3,27.5 C29.4,27.7 29.3,28 29.2,28 C29.1,28.1 29,28.3 29,28.5 C29,28.7 29,28.7 29.2,28.6 C29.4,28.5 29.5,28.4 29.5,28.5 C29.5,28.7 29.5,28.8 29.5,29 C29.4,29.2 29.5,29.3 29.7,29.2 C29.9,29.1 30,28.9 30.1,28.7 C30.2,28.6 30.3,28.6 30.4,28.7 L30.4,28.7 C30.5,28.8 30.5,29 30.4,29.2 C30.3,29.4 30.3,29.6 30.2,29.8 C30.2,30 30.1,30.1 29.9,30.1 C29.7,30.1 29.5,30.1 29.3,30.1 C29.1,30.1 28.9,30.2 28.8,30.5 C28.7,30.8 28.4,30.9 28.2,30.8 C27.9,30.8 27.5,30.9 27.3,31.1 C27,31.3 26.8,31.6 26.8,31.8 C26.9,31.9 26.9,32.1 26.9,32.2 L26.8,32.4 C26.8,32.5 26.9,32.7 27.1,33 C27.3,33.3 27.5,33.5 27.8,33.7 C28,33.8 28,34.2 27.8,34.5 C27.6,34.8 27.6,35.1 27.7,35.2 C27.8,35.3 28,35 28.2,34.7 C28.4,34.4 28.7,34.1 28.9,34.1 C29.1,34.1 29.2,34 29.2,33.8 L29.2,33.7 C29.2,33.5 29.2,33.4 29.3,33.2 C29.4,33.1 29.6,32.9 29.6,32.7 C29.7,32.5 29.9,32.4 30.1,32.4 L30.1,32.4 C30.3,32.5 30.5,32.7 30.6,33 C30.6,33.3 30.6,33.5 30.5,33.7 C30.4,33.9 30.4,34.1 30.5,34.1 C30.6,34.2 31,34 31.3,33.8 C31.6,33.6 31.8,33.8 31.7,34.3 C31.6,34.7 31.5,35.1 31.4,35.5 C31.3,35.7 31.5,36 31.7,36.3 C31.9,36.6 32.1,36.9 31.9,37 C31.8,37.1 31.7,37.3 31.8,37.6 C31.9,37.8 31.7,38.1 31.5,38.2 C31.3,38.3 31,38.2 30.9,37.9 C30.8,37.7 30.8,37.4 30.8,37.2 C30.9,37.1 30.6,36.8 30.2,36.7 C29.8,36.6 29.6,36.6 29.7,36.8 C29.8,37 29.8,37.2 29.7,37.3 C29.6,37.4 29.6,37.5 29.7,37.6 L29.7,37.6 C29.8,37.7 29.8,37.8 29.6,37.9 C29.4,38 29.2,38 29,37.9 C28.8,37.8 28.6,37.7 28.3,37.8 C28.1,37.8 27.9,37.9 27.7,38 C27.6,38.1 27.4,38.2 27.2,38.3 C27,38.4 26.8,38.5 26.7,38.7 C26.5,38.9 26.3,39.1 26,39.1 C25.6,39.2 25.3,39.5 25.2,39.9 C25.1,40.2 24.9,40.2 24.9,39.9 C24.8,39.6 24.7,39.2 24.4,39 C24.1,38.8 23.7,38.7 23.4,38.6 C23,38.5 22.7,38.6 22.4,38.9 C22.1,39.1 22,39.4 22,39.7 C22.1,39.9 22.2,40.1 22.4,40.3 C22.6,40.4 22.8,40.4 23,40.3 C23.2,40.2 23.3,40.2 23.5,40.3 C23.6,40.4 23.6,40.6 23.5,40.7 C23.4,40.8 23.3,41 23.3,41.2 C23.4,41.4 23.5,41.5 23.6,41.6 C23.7,41.8 23.7,42 23.6,42.2 C23.5,42.5 23.6,42.8 23.8,43 C24,43.2 24.1,43.4 23.9,43.4 C23.7,43.4 23.5,43.4 23.3,43.3 C23.1,43.1 23,42.9 22.9,42.7 C22.8,42.4 22.7,42.2 22.6,42 C22.4,41.8 22.3,41.5 22.2,41.3 C22.1,41 21.9,40.8 21.6,40.7 C21.3,40.5 21.1,40.3 20.9,40.1 C20.7,39.9 20.6,39.7 20.6,39.4 C20.6,39 20.6,38.5 20.5,38.1 C20.4,37.5 20.3,37.4 20.3,37.8 C20.3,38.2 20.2,38.3 20,38 C19.8,37.6 19.7,37.1 19.7,36.7 C19.7,36.3 19.6,35.8 19.3,35.5 C19.1,35.2 19.1,34.7 19.3,34.4 C19.5,34 19.8,33.5 20,33.2 C20.2,32.9 20.2,32.5 20.2,32.1 C20.1,31.8 20.1,31.5 20.3,31.2 C20.4,30.9 20.4,30.7 20.4,30.4 C20.4,30.2 20.3,29.7 20.3,29.5 C20.3,29.3 20.1,29 19.9,29 C19.6,28.9 19.4,28.7 19.2,28.5 C19,28.2 18.8,27.9 18.6,27.7 C18.5,27.5 18.2,27.5 18,27.5 C17.8,27.6 17.6,27.6 17.5,27.6 C17.3,27.6 17.1,27.7 17,27.8 C16.6,28 16.3,28.1 15.9,28.1 C15.5,28.1 15.3,28.1 15.6,27.9 C15.8,27.8 16.1,27.6 16.2,27.5 C16.3,27.3 16.3,27.1 16.3,27 C16.3,26.8 16.2,26.6 16.1,26.6 C16,26.6 15.9,26.4 15.8,26.2 C15.8,26 15.8,25.8 15.9,25.6 C16.1,25.5 16.4,25.4 16.7,25.5 C17,25.6 17.3,25.6 17.3,25.5 C17.3,25.4 17.2,25.3 17,25.2 C16.8,25.1 16.6,25 16.5,24.8 C16.4,24.7 16.4,24.5 16.5,24.4 C16.6,23.9 16.8,23.8 17,23.8 Z" id="Path" fill="#FFE73F"></path>
            <path d="M23.6,46.6 C23.4,46.4 23.2,46.2 23,46 C22.9,45.8 22.9,45.6 23,45.5 C23.1,45.4 23.2,45.4 23.1,45.3 C23,45.2 23.1,45.1 23.2,45 C23.4,44.8 23.5,44.7 23.6,44.5 C23.7,44.4 23.7,44.2 23.8,44 C23.8,43.9 24,43.9 24.2,43.8 C24.4,43.7 24.6,43.6 24.8,43.4 C25,43.2 25.1,43.1 25.2,42.9 C25.4,42.7 25.6,42.6 25.9,42.6 C26.2,42.6 26.4,42.4 26.6,42.2 C26.7,42 26.8,41.9 27,41.8 C27.2,41.8 27.4,41.8 27.6,42 C27.8,42.1 27.9,42.1 27.8,41.8 C27.8,41.5 27.8,41.3 28,41 C28.1,40.8 28.3,40.7 28.5,40.7 C28.8,40.8 29,40.9 29.2,41.1 C29.4,41.3 29.5,41.4 29.6,41.6 C29.6,41.7 29.8,41.8 30.1,41.9 C30.4,42 30.7,42.2 30.9,42.5 C31.1,42.7 31.1,43 31,43.3 C30.9,43.5 30.9,43.8 31.1,44 C31.2,44.2 31.4,44.3 31.5,44.5 C31.7,44.7 31.8,44.9 31.9,45.1 C32,45.3 32.1,45.6 32.1,45.8 C32.1,45.9 32.1,46.1 32.1,46.2 C32.1,46.3 32.3,46.3 32.6,46.4 C32.9,46.5 33,46.6 32.9,46.7 C32.8,46.8 32.8,47.1 32.7,47.2 C32.6,47.3 32.7,47.5 32.8,47.6 L32.8,47.6 C32.9,47.6 33,47.8 33,47.9 C33,48 33,48.1 33.2,48.1 C33.4,48.1 33.5,48.2 33.6,48.3 C33.7,48.4 33.7,48.6 33.7,48.7 C33.7,48.8 33.7,48.9 33.8,49 C33.9,49 34,49 34.1,48.9 C34.2,48.8 34.4,49 34.7,49.3 C34.9,49.6 35.3,49.8 35.7,49.8 C36,49.7 36.3,49.8 36.4,50 C36.5,50.2 36.2,50.4 35.9,50.5 C35.4,50.7 34.9,50.7 34.5,50.7 C34,50.7 33.6,50.4 33.4,50 C33.3,49.7 33.1,49.4 33,49.5 C32.8,49.6 32.7,49.6 32.5,49.5 C32.3,49.4 32.2,49.3 32.2,49.2 C32.2,49.1 32.1,49.1 31.9,49.1 C31.6,49 31.4,48.9 31.2,48.6 C31,48.3 30.8,48.1 30.6,48.2 C30.2,48.1 29.8,48 29.5,47.7 C29.1,47.4 28.7,47.2 28.3,47.1 C28,47.1 27.8,47.2 27.6,47.4 C27.5,47.6 27.3,47.7 27.1,47.7 C26.9,47.7 26.6,47.7 26.4,47.7 C26.2,47.8 25.8,47.8 25.7,47.8 C25.6,47.8 25.5,47.8 25.4,47.8 C25.3,47.8 25.3,47.7 25.3,47.6 C25.3,47.5 25.3,47.4 25.2,47.4 C25.1,47.4 25,47.4 24.9,47.4 C24.9,47.5 24.7,47.4 24.6,47.3 C24.5,47.2 24.4,47 24.4,46.8 C23.9,46.9 23.8,46.7 23.6,46.6 Z" id="Path" fill="#FFE73F"></path>
            <path d="M43.5,21.9 C43.6,22 43.5,22 43.3,21.9 C43.1,21.8 42.8,21.8 42.6,21.8 C42.4,21.8 42.3,21.9 42.3,22.1 C42.3,22.2 42.3,22.4 42.3,22.5 C42.3,22.6 42.2,22.7 42.2,22.6 C42.2,22.5 42,22.5 42,22.6 C41.9,22.7 41.8,22.8 41.7,22.8 C41.6,22.8 41.5,22.7 41.5,22.6 L41.5,22.6 C41.5,22.5 41.3,22.6 41.2,22.7 C41,22.9 40.9,23.1 40.9,23.3 C40.9,23.5 40.8,23.6 40.7,23.6 C40.6,23.5 40.5,23.4 40.5,23.3 C40.5,23.2 40.4,23.1 40.3,23 L40.3,23 C40.2,23 40.1,23.1 40.2,23.3 L40.4,23.8 C40.4,23.9 40.4,24 40.3,24.1 L40.3,24.1 C40.2,24.1 40.1,24.2 40.1,24.4 C40.1,24.6 40.2,24.7 40.3,24.8 C40.4,24.9 40.4,25 40.2,25 C40,25 39.8,24.9 39.6,24.8 C39.4,24.7 39.3,24.5 39.2,24.4 C39.1,24.3 39.2,24.3 39.3,24.3 C39.5,24.3 39.6,24.3 39.8,24.2 C39.9,24.1 40,24 40,23.9 C39.9,23.8 39.8,23.7 39.7,23.6 C39.5,23.5 39.3,23.4 39,23.3 C38.8,23.2 38.6,23.2 38.4,23.3 C38.3,23.4 38.1,23.4 38,23.4 C37.9,23.4 37.9,23.3 38,23.2 C38.1,23.1 38.2,23 38.1,22.9 C38.1,22.8 37.8,22.8 37.6,22.9 C37.4,23 37.2,23.2 37,23.4 C36.9,23.6 36.8,23.8 36.6,23.9 C36.4,24.1 36.3,24.3 36.3,24.6 C36.2,24.9 36.2,25.1 36.2,25.4 C36.2,25.7 36.2,25.9 36.1,26.2 C36,26.4 35.9,26.7 35.8,26.9 C35.7,27.1 35.7,27.3 35.7,27.5 C35.8,27.7 35.9,27.9 36,28.1 C36.1,28.3 36.3,28.2 36.5,28 C36.7,27.8 37,27.9 37.1,28 C37.1,28 37.1,28 37.1,28.1 C37.3,28.3 37.4,28.5 37.5,28.4 C37.5,28.2 37.5,28.1 37.5,27.9 C37.5,27.7 37.5,27.5 37.5,27.3 C37.6,27.2 37.5,27 37.4,26.9 C37.3,26.8 37.2,26.7 37.1,26.6 C37.1,26.5 37.1,26.3 37.1,26.2 C37.2,26 37.3,25.7 37.4,25.5 C37.5,25.3 37.7,25.1 37.7,25.1 C37.8,25.2 37.8,25.2 37.9,25.3 C37.9,25.4 37.9,25.6 37.8,25.7 C37.7,25.9 37.7,26.1 37.8,26.3 C37.9,26.5 38,26.7 38.1,26.8 C38.2,26.9 38.3,27.1 38.4,27.3 C38.5,27.5 38.5,27.7 38.4,27.6 C38.3,27.5 38.2,27.7 38.3,28 C38.3,28.2 38.3,28.3 38.1,28.5 C38,28.6 37.9,28.6 37.8,28.6 C37.7,28.6 37.6,28.7 37.6,28.8 C37.5,28.9 37.4,28.9 37.3,28.9 C37.2,28.9 37.1,28.9 37,29 C36.9,29.1 36.8,29.1 36.7,29.2 C36.6,29.4 36.5,29.5 36.4,29.7 C36.4,29.9 36.3,30.1 36.2,30.2 C36.1,30.3 36,30.4 35.9,30.5 C35.8,30.6 35.8,30.6 35.9,30.7 C36,30.8 36,30.8 35.9,30.8 C35.8,30.8 35.6,30.9 35.5,30.9 C35.4,30.9 35.3,31 35.3,31.1 C35.4,31.2 35.5,31.3 35.6,31.2 C35.7,31.2 35.8,31.2 36,31.2 C36.1,31.2 36.2,31.3 36.2,31.4 L36.2,31.8 C36.2,31.9 36,32 35.8,32.1 C35.6,32.2 35.4,32.3 35.4,32.4 C35.4,32.6 35.5,32.7 35.5,32.9 C35.6,33.1 35.7,33.2 35.9,33.2 C36.1,33.2 36.3,33.2 36.4,33.1 C36.5,33 36.6,32.9 36.6,32.8 C36.6,32.7 36.6,32.6 36.6,32.5 C36.6,32.4 36.6,32.3 36.7,32.2 C36.8,32.1 36.9,31.9 36.9,31.8 C36.9,31.7 37,31.6 37.1,31.6 C37.2,31.6 37.3,31.5 37.4,31.5 C37.5,31.4 37.5,31.4 37.6,31.3 C37.7,31.2 37.8,31.3 37.8,31.4 C37.9,31.5 38,31.6 38.2,31.7 C38.4,31.7 38.5,31.8 38.7,31.9 C38.8,32 38.9,32 38.9,32 C39,32 39,31.9 38.9,31.9 C38.8,31.9 38.9,31.8 38.9,31.8 L39,31.7 C39,31.7 38.9,31.6 38.8,31.6 C38.7,31.6 38.6,31.6 38.5,31.6 C38.4,31.6 38.3,31.6 38.3,31.5 C38.2,31.4 38.1,31.4 38.1,31.3 L38.1,31.2 L38.1,31.2 C38.2,31.2 38.3,31.2 38.4,31.3 C38.5,31.4 38.7,31.4 38.8,31.5 C38.9,31.5 39.1,31.6 39.1,31.7 C39.2,31.9 39.3,32 39.4,32.1 C39.6,32.2 39.7,32.2 39.7,32.1 C39.7,32 39.7,31.9 39.7,31.9 C39.7,31.8 39.7,31.7 39.7,31.6 C39.7,31.5 39.8,31.5 39.9,31.5 C40,31.5 40.1,31.6 40.1,31.7 C40.2,31.8 40.2,31.9 40.3,32 C40.4,32.1 40.6,32.1 40.7,32.1 L41.2,31.9 C41.3,31.8 41.4,31.9 41.5,32 C41.5,32 41.5,32 41.5,32.1 C41.5,32.3 41.5,32.5 41.5,32.6 C41.5,32.7 41.4,32.9 41.4,32.9 C41.4,32.9 41.3,32.9 41.2,32.9 C41.2,32.9 41.1,32.9 41,32.9 C40.9,32.9 40.9,33 40.8,33 C40.7,33.1 40.6,33.1 40.5,33.1 C40.4,33.1 40.2,33.1 40.1,33.1 C40,33.1 39.8,33.1 39.7,33.1 C39.6,33.1 39.5,33.2 39.5,33.4 C39.5,33.5 39.5,33.6 39.5,33.7 C39.5,33.7 39.3,33.8 39.2,33.7 C39.1,33.7 38.9,33.6 38.8,33.5 C38.7,33.5 38.6,33.5 38.4,33.5 C38.3,33.5 38.2,33.5 38.1,33.5 C38,33.5 38,33.4 38,33.3 C38,33.2 38,33.1 37.9,33 C37.9,32.9 37.8,32.9 37.7,32.9 C37.6,32.9 37.5,33 37.5,33 C37.4,33.1 37.3,33.1 37.1,33.2 C37,33.2 36.8,33.3 36.7,33.3 C36.6,33.3 36.5,33.4 36.4,33.5 C36.3,33.6 36.3,33.7 36.2,33.7 C36.1,33.8 36,33.8 35.9,33.8 C35.8,33.8 35.7,33.8 35.7,33.9 C35.6,33.9 35.6,34 35.6,34.1 C35.6,34.2 35.5,34.3 35.4,34.4 C35.3,34.5 35.3,34.6 35.3,34.7 C35.3,34.8 35.3,35 35.3,35.1 L35.1,35.6 C35,35.8 35,35.9 35,36.1 C35,36.2 35,36.3 35,36.5 C35,36.6 35,36.7 35.1,36.8 C35.2,36.9 35.3,37 35.3,37.1 C35.3,37.2 35.3,37.4 35.3,37.5 C35.3,37.7 35.4,37.8 35.6,37.9 C35.8,38 35.9,38.1 36.1,38.2 C36.2,38.2 36.3,38.3 36.5,38.3 C36.6,38.4 36.8,38.4 36.9,38.4 C37.1,38.4 37.2,38.4 37.4,38.3 C37.5,38.2 37.6,38.2 37.6,38.3 C37.6,38.4 37.8,38.3 38,38.1 C38.2,37.9 38.4,37.8 38.5,37.7 C38.6,37.6 38.7,37.6 38.8,37.7 C38.9,37.8 39,37.8 39.1,37.8 C39.2,37.8 39.3,37.8 39.4,37.9 C39.5,38 39.6,38.1 39.5,38.3 C39.5,38.4 39.5,38.6 39.7,38.7 C39.8,38.8 40,38.9 40.1,38.9 C40.2,39 40.4,39.1 40.4,39.2 C40.5,39.3 40.6,39.5 40.6,39.6 C40.7,39.7 40.7,39.9 40.7,40 C40.7,40.1 40.7,40.3 40.7,40.4 C40.8,40.5 40.9,40.7 41,40.8 L41.3,41.2 C41.4,41.3 41.5,41.4 41.5,41.6 C41.6,41.8 41.7,41.9 41.8,42 L42.1,42.3 C42.2,42.4 42.3,42.5 42.3,42.7 C42.3,42.8 42.4,42.9 42.5,42.9 C42.7,42.9 42.8,42.8 42.9,42.7 L43.6,42.2 C43.8,42.1 44,41.8 44,41.6 C44,41.4 44,41.2 44,41 C44,40.9 44,40.7 44.1,40.6 C44.2,40.5 44.2,40.3 44.1,40.1 C44,39.9 44,39.7 44.1,39.5 C44.2,39.4 44.3,39.2 44.4,39.1 C44.5,39 44.5,38.9 44.5,38.8 C44.5,38.7 44.4,38.6 44.4,38.4 C44.3,38.2 44.3,38.1 44.2,38 C44,37.8 43.9,37.6 43.9,37.3 C43.9,37.1 44,36.9 44.1,36.7 C44.2,36.5 44.3,36.2 44.4,36.1 C44.4,36 44.5,35.8 44.6,35.6 C44.7,35.4 44.7,35.1 44.7,34.9 C44.7,34.7 44.6,34.6 44.4,34.7 C44.2,34.8 44.1,34.9 43.9,35 C43.8,35 43.6,35.1 43.5,35.1 C43.4,35.1 43.2,34.9 43.1,34.7 C43,34.5 42.8,34.3 42.7,34.1 C42.6,34 42.5,33.9 42.4,33.8 C42.3,33.7 42.2,33.6 42.1,33.5 C42,33.4 41.8,33.2 41.7,33.1 C41.6,33 41.8,33 42.1,33.1 C42.4,33.2 42.6,33.4 42.8,33.6 C42.9,33.8 43,33.9 43.1,34 C43.3,34.1 43.4,34.3 43.5,34.5 C43.6,34.7 43.8,34.6 44.1,34.4 L44.8,33.7 C45,33.5 45.1,33.3 45.2,33.1 C45.3,33 45.3,32.8 45.3,32.7 C45.3,32.6 45.2,32.5 45.1,32.4 C45,32.4 44.8,32.4 44.7,32.5 C44.6,32.6 44.4,32.6 44.3,32.5 C44.1,32.4 43.9,32.4 43.7,32.3 C43.6,32.2 43.5,32.1 43.4,32 C43.4,31.9 43.5,31.9 43.6,31.9 L44.1,32 C44.3,32.1 44.5,32.1 44.7,32.1 C44.8,32.1 45,32.1 45.1,32.1 C45.2,32.1 45.4,32.1 45.5,32 C45.7,31.9 45.9,31.8 46.1,31.8 C46.3,31.8 46.5,31.8 46.7,31.9 C46.8,31.9 46.9,32 46.9,32.1 C46.9,32.2 47,32.2 47.1,32.3 C47.2,32.4 47.3,32.3 47.3,32.3 C47.3,32.3 47.4,32.4 47.5,32.6 C47.7,32.9 47.9,33.1 48.2,33.4 C48.4,33.6 48.7,33.7 48.7,33.6 C48.8,33.4 48.8,33.2 48.7,33 C48.7,32.8 48.7,32.5 48.8,32.3 L49.2,31.7 C49.4,31.5 49.6,31.4 49.9,31.4 C50.1,31.4 50.3,31.5 50.5,31.7 C50.6,31.8 50.7,31.8 50.8,31.8 C50.9,31.7 51,31.5 51.1,31.4 C51.1,30.9 51.1,30.5 51,30 C50.9,29.5 50.4,28 49.9,26.7 C49.4,25.4 48.8,24 48.6,23.6 C48.3,23.1 48,22.6 47.6,22.2 C47.3,21.9 46.8,21.4 46.5,21.2 C46.2,21 45.9,20.8 45.6,20.6 C45.3,20.5 45,20.3 44.7,20.3 C44.4,20.2 44.1,20.3 44.1,20.4 C44.1,20.5 44.1,20.6 44.3,20.7 C44.5,20.8 44.4,20.8 44.3,20.8 C44.1,20.8 44,20.7 43.9,20.6 C43.8,20.5 43.8,20.4 43.7,20.2 C43.6,20.2 43.6,20.2 43.6,20.3 C43.6,20.4 43.6,20.6 43.6,20.7 C43.6,20.8 43.6,20.9 43.7,21 C43.8,21.1 43.8,21.2 43.9,21.3 C43.9,21.4 44.1,21.5 44.2,21.5 C44.3,21.5 44.4,21.6 44.4,21.7 C44.3,21.8 44.3,22 44.4,22.1 C44.5,22.3 44.4,22.4 44.3,22.6 C44.2,22.7 44.1,22.8 43.9,22.8 C43.8,22.8 43.8,22.7 43.9,22.6 C44,22.5 44.1,22.3 44.1,22.1 C44.1,21.9 44,21.8 43.9,21.7 C43.8,21.6 43.7,21.4 43.6,21.2 C43.5,21 43.5,20.9 43.4,20.7 C43.3,20.6 43.3,20.4 43.3,20.3 C43.3,20.2 43.3,20.1 43.2,20.2 C43.1,20.2 43,20.3 43.1,20.4 C43.1,20.6 43.1,20.7 43,20.8 C42.9,20.9 42.9,21.1 43,21.2 C43.1,21.3 43.2,21.4 43.3,21.5 C43.2,21.6 43.4,21.8 43.5,21.9 Z" id="Path" fill="#FFE73F"></path>
            <path d="M32.6,31.8 C32.5,31.7 32.5,31.5 32.5,31.4 C32.5,31.3 32.5,31.1 32.3,31.1 C32.2,31 32.3,30.8 32.5,30.5 C32.7,30.2 33.1,30.1 33.2,30.2 C33.4,30.4 33.5,30.7 33.5,30.9 C33.5,31.2 33.4,31.5 33.1,31.7 C33,31.9 32.7,31.9 32.6,31.8 Z" id="Path" fill="#FFE73F"></path>
            <path d="M32.5,27.1 C32.6,27.1 32.6,26.9 32.5,26.6 C32.4,26.3 32.4,26.1 32.5,26.1 C32.6,26 32.7,25.9 32.7,25.7 C32.7,25.5 32.9,25.5 33,25.6 C33.2,25.7 33.3,25.9 33.3,26.1 C33.3,26.3 33.4,26.4 33.5,26.4 C33.6,26.4 33.7,26.5 33.7,26.7 C33.8,27 33.9,27.2 34.1,27.4 C34.3,27.6 34.5,27.9 34.5,28.1 C34.6,28.3 34.7,28.5 35,28.5 C35.2,28.5 35.3,28.7 35.3,28.9 C35.2,29.1 35,29.3 34.7,29.4 L33.9,29.8 C33.7,29.9 33.6,29.8 33.7,29.7 C33.8,29.6 33.8,29.4 33.6,29.3 C33.5,29.2 33.4,29 33.5,28.7 C33.6,28.5 33.6,28.2 33.5,28 C33.4,27.9 33.3,27.7 33.2,27.6 L32.8,27.3 C32.5,27.2 32.4,27.1 32.5,27.1 Z" id="Path" fill="#FFE73F"></path>
            <path d="M21,21.8 C21,21.6 21,21.4 21.1,21.2 C21.2,21.1 21.3,21 21.5,21.1 L21.5,21.1 C21.7,21.2 21.8,21.2 21.8,21 C21.9,20.8 22,20.7 22.2,20.6 C22.4,20.6 22.5,20.5 22.6,20.3 C22.7,20.2 22.9,20.2 23.2,20.3 C23.4,20.4 23.7,20.6 23.9,20.8 C24,20.9 23.8,21.3 23.4,21.7 C23,22.1 22.6,22.4 22.4,22.3 C22.2,22.3 22,22.3 21.8,22.3 C21.7,22.3 21.6,22.3 21.6,22.2 C21.6,22.2 21.6,22.2 21.6,22.1 C21.6,22 21.5,21.9 21.3,21.9 L21.3,21.9 C21.2,22.1 21,22 21,21.8 L21,21.8 Z" id="Path" fill="#FFE73F"></path>
            <path d="M45.4,45.2 C44.9,45.2 44.5,45 44.4,44.8 C44.3,44.6 44.3,44.4 44.4,44.2 C44.5,44 44.5,43.8 44.5,43.6 C44.5,43.2 44.7,42.9 44.9,42.6 C45.1,42.3 45.3,41.9 45.3,41.6 C45.3,41.4 45.5,41.5 45.8,41.8 C46.1,42.1 46.3,42.6 46.3,43.1 C46.3,43.6 46.3,44.1 46.3,44.6 C46.3,45 46,45.3 45.6,45.3 C45.5,45.2 45.4,45.2 45.4,45.2 Z" id="Path" fill="#FFE73F"></path>
            <path d="M19.1,46 C17.3,46 15.4,45.9 13.6,45.7 C7.5,45 4.3,43.5 4,41.1 C3.4,37.3 10.1,34 12.1,33.1 C12.5,32.9 13,33 13.2,33.4 C13.4,33.8 13.3,34.3 12.9,34.5 L12.8,34.5 C8.3,36.5 5.4,39.1 5.6,40.8 C5.7,41.5 6.7,43.2 13.8,44 C32.2,46.1 59.5,36.2 60.2,30.5 C60.4,28.9 57.7,27.6 52.9,26.8 C52.5,26.7 52.1,26.3 52.2,25.9 C52.3,25.5 52.7,25.1 53.1,25.2 C53.1,25.2 53.1,25.2 53.2,25.2 C59.3,26.1 62.3,28 61.9,30.7 C60.9,37.2 37.4,46 19.1,46 Z" id="Path" fill="#FFFFFF"></path>
            <path d="M20,38.7 C18.3,38.7 16.6,38.6 14.8,38.4 C9.4,37.8 6.5,36.4 6.2,34.4 C5.8,31.8 7.6,30.3 11.4,28.6 L11.3,29.4 C6.9,31.4 6.6,32.6 6.9,34.3 C7.2,36 10,37.1 14.9,37.6 C22.5,38.5 32.6,37.2 41.9,34.3 C50.5,31.6 56.5,28.1 56.8,25.5 C57,23.7 56.6,22.4 51.6,21.6 L51.4,20.9 C57,21.8 57.9,23.3 57.6,25.6 C57.1,29.2 49.3,32.8 42.2,35 C35,37.4 27.6,38.6 20,38.7 Z" id="Path" fill="#FFFFFF"></path>
            <circle id="Oval" fill="#FFFFFF" cx="32" cy="6.1" r="1"></circle>
            <circle id="Oval" fill="#FFFFFF" cx="49.7" cy="11.6" r="1"></circle>
            <circle id="Oval" fill="#FFFFFF" cx="17.8" cy="52.9" r="1"></circle>
            <circle id="Oval" fill="#FFFFFF" cx="33.8" cy="61.7" r="1"></circle>
            <circle id="Oval" fill="#FFFFFF" cx="54.5" cy="48.2" r="1"></circle>
        </g>
        <circle id="Oval" fill="#E30613" fill-rule="nonzero" cx="32.8" cy="37.2" r="8.6"></circle>
        <g id="ON" fill-rule="nonzero">
            <use fill="#000000" xlink:href="#path-1"></use>
            <use fill="#FFFFFF" xlink:href="#path-1"></use>
        </g>
    </g>
</svg>