<?xml version="1.0" encoding="UTF-8"?>
<svg width="16px" height="20px" viewBox="0 0 16 20" version="1.1" xmlns="http://www.w3.org/2000/svg" xmlns:xlink="http://www.w3.org/1999/xlink">
    <title>pause</title>
    <g id="Page-1" stroke="none" stroke-width="1" fill="none" fill-rule="evenodd" stroke-linejoin="round">
        <g id="pause" transform="translate(1.000000, 1.000000)" fill="#FFFFFF" fill-rule="nonzero" stroke="#FFFFFF">
            <path d="M12,-3.55271368e-15 C12,-3.55271368e-15 14,-3.55271368e-15 14,-3.55271368e-15 L14,18 C14,18 12,18 12,18 C12,18 10,18 10,18 L10,-3.55271368e-15 C10,-3.55271368e-15 12,-3.55271368e-15 12,-3.55271368e-15 Z" id="Path"></path>
            <path d="M2,-3.55271368e-15 C2,-3.55271368e-15 4,-3.55271368e-15 4,-3.55271368e-15 L4,18 C4,18 2,18 2,18 C2,18 0,18 0,18 L0,-3.55271368e-15 C0,-3.55271368e-15 2,-3.55271368e-15 2,-3.55271368e-15 Z" id="Path"></path>
        </g>
    </g>
</svg>