<?xml version="1.0" encoding="UTF-8"?>
<svg width="40px" height="40px" viewBox="0 0 40 40" version="1.1" xmlns="http://www.w3.org/2000/svg" xmlns:xlink="http://www.w3.org/1999/xlink">
    <!-- Generator: Sketch 63 (92445) - https://sketch.com -->
    <title>pause</title>
    <desc>Created with Sketch.</desc>
    <g id="pause" stroke="none" stroke-width="1" fill="none" fill-rule="evenodd">
        <g id="Group" fill-rule="nonzero">
            <circle id="Oval" stroke-opacity="0.87" stroke="#000000" stroke-width="1.5" fill="#E30613" cx="20" cy="20" r="19.25"></circle>
            <path d="M16.5,11 C17.3181818,11 18,11.7531381 18,12.6569038 L18,27.3430962 C18,28.2468619 17.3181818,29 16.5,29 C15.6818182,29 15,28.2468619 15,27.3430962 L15,12.6569038 C15,11.7531381 15.6818182,11 16.5,11 Z" id="Path" fill="#FFFFFF"></path>
            <path d="M23.5,11 C24.3181818,11 25,11.7531381 25,12.6569038 L25,27.3430962 C25,28.2468619 24.3181818,29 23.5,29 C22.6818182,29 22,28.2468619 22,27.3430962 L22,12.6569038 C22,11.7531381 22.6818182,11 23.5,11 Z" id="Path" fill="#FFFFFF"></path>
        </g>
    </g>
</svg>