<?xml version="1.0" encoding="UTF-8"?>
<svg width="40px" height="40px" viewBox="0 0 40 40" version="1.1" xmlns="http://www.w3.org/2000/svg" xmlns:xlink="http://www.w3.org/1999/xlink">
    <!-- Generator: Sketch 63 (92445) - https://sketch.com -->
    <title>history</title>
    <desc>Created with Sketch.</desc>
    <g id="Page-1" stroke="none" stroke-width="1" fill="none" fill-rule="evenodd">
        <g id="history">
            <circle id="Oval" stroke-opacity="0.87" stroke="#000000" stroke-width="1.5" fill="#FFFFFF" cx="20" cy="20" r="19.25"></circle>
            <g id="Group" transform="translate(10.000000, 11.000000)" fill="#0B89B5" fill-rule="nonzero">
                <path d="M4,16.5 C4,15.7142857 4.65789474,15 5.38157895,15 L17.6184211,15 C18.3421053,15 19,15.7142857 19,16.5 C19,17.2857143 18.3421053,18 17.6184211,18 L5.38157895,18 C4.65789474,18 4,17.3571429 4,16.5 Z" id="Path"></path>
                <circle id="Oval" cx="1.5" cy="16.5" r="1.5"></circle>
                <path d="M4,11.5 C4,10.7142857 4.65789474,10 5.38157895,10 L17.6184211,10 C18.3421053,10 19,10.7142857 19,11.5 C19,12.2857143 18.3421053,13 17.6184211,13 L5.38157895,13 C4.65789474,13 4,12.2857143 4,11.5 Z" id="Path"></path>
                <circle id="Oval" cx="1.5" cy="11.5" r="1.5"></circle>
                <path d="M4,6.5 C4,5.71428571 4.65789474,5 5.38157895,5 L17.6184211,5 C18.3421053,5 19,5.71428571 19,6.5 C19,7.28571429 18.3421053,8 17.6184211,8 L5.38157895,8 C4.65789474,8 4,7.35714286 4,6.5 Z" id="Path"></path>
                <circle id="Oval" cx="1.5" cy="6.5" r="1.5"></circle>
                <path d="M4,1.5 C4,0.714285714 4.65789474,0 5.38157895,0 L17.6184211,0 C18.3421053,0 19,0.714285714 19,1.5 C19,2.28571429 18.3421053,3 17.6184211,3 L5.38157895,3 C4.65789474,3 4,2.28571429 4,1.5 Z" id="Path"></path>
                <circle id="Oval" cx="1.5" cy="1.5" r="1.5"></circle>
            </g>
        </g>
    </g>
</svg>